<?xml version="1.0" encoding="utf-8"?>
<!-- Generator: Adobe Illustrator 16.0.0, SVG Export Plug-In . SVG Version: 6.00 Build 0)  -->
<!DOCTYPE svg PUBLIC "-//W3C//DTD SVG 1.1//EN" "http://www.w3.org/Graphics/SVG/1.1/DTD/svg11.dtd">
<svg version="1.1" id="Capa_1" xmlns="http://www.w3.org/2000/svg" xmlns:xlink="http://www.w3.org/1999/xlink" x="0px" y="0px"
	 width="512px" height="512px" viewBox="0 0 512 512" enable-background="new 0 0 512 512" xml:space="preserve">
<g>
	<path fill="#FFFFFF" stroke="#FFFFFF" stroke-width="17" stroke-miterlimit="10" d="M256,0c-7.115,0-12.766,5.755-12.766,12.871
		v344.996l-58.493-58.493c-5.023-5.023-13.08-5.023-18.103,0c-5.023,5.022-5.023,13.08,0,18.103l80.363,80.363
		c2.511,2.511,5.755,3.767,9.104,3.767c3.244,0,6.593-1.256,9.104-3.767l80.363-80.363c5.022-5.022,5.022-13.08,0-18.103
		s-13.08-5.022-18.103,0l-58.494,58.493V12.871C268.871,5.755,263.115,0,256,0z"/>
	<path fill="#FFFFFF" stroke="#FFFFFF" stroke-width="17" stroke-miterlimit="10" d="M498.345,486.259H13.655
		c-7.115,0-12.871,5.755-12.871,12.87C0.785,506.245,6.54,512,13.655,512h484.689c7.115,0,12.87-5.755,12.87-12.871
		C511.215,492.014,505.46,486.259,498.345,486.259z"/>
</g>
</svg>
