<?xml version="1.0" encoding="utf-8"?>
<!-- Generator: Adobe Illustrator 16.0.0, SVG Export Plug-In . SVG Version: 6.00 Build 0)  -->
<!DOCTYPE svg PUBLIC "-//W3C//DTD SVG 1.1//EN" "http://www.w3.org/Graphics/SVG/1.1/DTD/svg11.dtd">
<svg version="1.1" id="Capa_1" xmlns="http://www.w3.org/2000/svg" xmlns:xlink="http://www.w3.org/1999/xlink" x="0px" y="0px"
	 width="511.979px" height="512px" viewBox="0.011 0 511.979 512" enable-background="new 0.011 0 511.979 512"
	 xml:space="preserve">
<g>
	<path fill="#FFFFFF" d="M437.244,75.035C388.869,26.662,324.553,0,256.132,0C187.724,0,123.406,26.662,75.034,75.034
		C26.645,123.412,0.011,187.729,0.011,256.133c0,68.408,26.649,132.727,75.022,181.101C123.241,485.434,187.542,512,256.045,512
		c3.469,0,6.919-0.066,10.371-0.2c6.447-0.265,12.578-2.942,17.137-7.503l220.742-220.744c4.537-4.555,7.217-10.666,7.486-17.098
		C514.66,195.03,487.51,125.269,437.244,75.035z M252.699,460.564c-53.534-0.856-103.648-21.894-141.37-59.61
		c-38.673-38.694-59.995-90.115-59.995-144.821s21.322-106.127,59.995-144.816c38.694-38.677,90.115-59.982,144.804-59.982
		c54.706,0,106.144,21.305,144.817,59.982c37.535,37.52,58.289,86.645,59.528,139.472
		C349.83,261.094,262.059,349.632,252.699,460.564z"/>
	<g>
		<path fill="#FFFFFF" stroke="#FFFFFF" stroke-width="22" stroke-miterlimit="10" d="M202.444,188.419
			c0,5.487-4.448,9.935-9.937,9.935l0,0c-5.488,0-9.936-4.448-9.936-9.935v-27.945c0-5.489,4.448-9.938,9.936-9.938l0,0
			c5.489,0,9.937,4.449,9.937,9.938V188.419z"/>
		<path fill="#FFFFFF" stroke="#FFFFFF" stroke-width="22" stroke-miterlimit="10" d="M314.563,188.419
			c0,5.487-4.45,9.935-9.938,9.935l0,0c-5.488,0-9.938-4.448-9.938-9.935v-27.945c0-5.489,4.449-9.938,9.938-9.938l0,0
			c5.488,0,9.938,4.449,9.938,9.938V188.419z"/>
		<path fill="none" stroke="#FFFFFF" stroke-width="22" stroke-linecap="round" stroke-linejoin="round" stroke-miterlimit="10" d="
			M159.467,224.042c5.362,44.147,42.941,78.353,88.532,78.353c45.59,0,83.17-34.205,88.534-78.353"/>
		<path fill="none" stroke="#FFFFFF" stroke-width="22" stroke-linecap="round" stroke-linejoin="round" stroke-miterlimit="10" d="
			M209.227,121.49c-9.515-8.101-23.925-8.101-33.44,0"/>
		<path fill="none" stroke="#FFFFFF" stroke-width="22" stroke-linecap="round" stroke-linejoin="round" stroke-miterlimit="10" d="
			M321.344,122.13c-9.516-8.104-23.924-8.104-33.439,0"/>
	</g>
</g>
</svg>
