<?xml version="1.0" encoding="utf-8"?>
<!-- Generator: Adobe Illustrator 16.0.0, SVG Export Plug-In . SVG Version: 6.00 Build 0)  -->
<!DOCTYPE svg PUBLIC "-//W3C//DTD SVG 1.1//EN" "http://www.w3.org/Graphics/SVG/1.1/DTD/svg11.dtd">
<svg version="1.1" id="OBJECTS" xmlns="http://www.w3.org/2000/svg" xmlns:xlink="http://www.w3.org/1999/xlink" x="0px" y="0px"
	 width="313.047px" height="128.673px" viewBox="0 0 313.047 128.673" enable-background="new 0 0 313.047 128.673"
	 xml:space="preserve">
<g>
	<path fill="#FFFFFF" d="M312.666,21.232l-0.111-0.511l-0.163-0.496l-0.044-0.145c-0.215-0.71-0.601-1.984-1.443-3.39l-0.319-0.565
		l-0.382-0.676l-0.481-0.608l-0.495-0.627l-0.02-0.024l-0.02-0.024c-1.4-1.75-2.887-2.934-4.155-3.861l-0.1-0.073l-0.103-0.07
		c-2.669-1.851-5.281-2.929-7.26-3.662l-0.025-0.01l-0.026-0.009c-1.986-0.723-4.096-1.332-6.45-1.862l-0.243-0.055l-0.284-0.051
		c-0.988-0.169-1.936-0.343-2.884-0.517c-1.85-0.338-3.763-0.688-5.762-0.979l-0.166-0.024l-0.168-0.019
		c-0.952-0.106-1.907-0.221-2.862-0.335c-1.912-0.229-3.89-0.467-5.891-0.644l-8.428-0.759l-4.164-0.391l-1.051-0.099l-0.048-0.004
		l-0.048-0.004l-0.584-0.049l-0.112-0.009l-0.114-0.007l-0.528-0.032l-2.115-0.129l-4.228-0.258
		c-0.692-0.04-1.373-0.058-2.179-0.058c-0.445,0-0.892,0.006-1.339,0.012c-0.359,0.004-0.719,0.01-1.077,0.01l-0.233-0.001l-0.073,0
		l-0.074,0l-4.299,0.032l-0.148,0.001l-0.149,0.005l-4.241,0.158l-8.41,0.275l-2.079,0.062l-0.527,0.016l-0.115,0.003l-0.115,0.006
		l-0.583,0.031l-0.033,0.001l-0.032,0.002l-1.058,0.063c-0.521,0.033-1,0.061-1.479,0.088c-0.976,0.056-1.952,0.113-2.933,0.189
		l-0.324,0.025l-0.322,0.046l-4.309,0.619l-1.092,0.159l-0.378,0.055l-0.373,0.083l-1.051,0.236l-2.121,0.48l-2.104,0.478
		l-0.337,0.077l-0.33,0.099l-2.059,0.62l-2.083,0.633l-1.044,0.319l-0.3,0.092l-0.294,0.11l-1.006,0.378
		c-0.489,0.187-0.935,0.353-1.381,0.52c-0.915,0.341-1.86,0.695-2.838,1.086l-0.169,0.068l-0.166,0.074l-3.922,1.741l-0.111,0.049
		l-0.109,0.052c-0.978,0.462-1.886,0.927-2.766,1.377c-0.42,0.215-0.84,0.43-1.262,0.641c-1.088,0.545-2.073,1.111-2.941,1.611
		c-0.388,0.223-0.774,0.446-1.165,0.662l-0.083,0.046l-0.081,0.047c-0.625,0.361-1.346,0.75-2.109,1.162
		c-0.469,0.253-0.938,0.506-1.396,0.758l-0.119,0.065l-0.08,0.047c-0.101,0.05-0.348,0.159-0.531,0.24l-0.393,0.173l-1.809,0.805
		c-0.471,0.201-1.104,0.423-1.773,0.657c-0.464,0.163-0.928,0.326-1.388,0.495c-0.56,0.179-1.21,0.356-1.896,0.543
		c-0.446,0.122-0.894,0.244-1.339,0.372c-0.627,0.145-1.312,0.283-2.032,0.428c-0.435,0.087-0.869,0.175-1.304,0.266
		c-0.708,0.108-1.42,0.201-2.131,0.295c-0.41,0.055-0.819,0.109-1.229,0.165l-1.808,0.127l-4.642,0.094l-1.135,0.027l-1.126-0.024
		l-4.393-0.097c-4.146-0.284-8.117-1.022-11.848-2.207L137,17.225c-0.17-0.063-0.341-0.124-0.511-0.184
		c-0.084-0.03-0.168-0.059-0.252-0.089l-0.943-0.424l-1.988-0.892l-1.902-1.04l-1.049-0.573l-1.086-0.618l-2.265-1.293l-0.063-0.037
		l-0.065-0.036c-1.161-0.641-2.301-1.218-3.401-1.776c-0.521-0.264-1.043-0.528-1.56-0.796l-0.147-0.076l-0.149-0.072
		c-7.524-3.594-15.161-6.117-22.697-7.5l-0.198-0.037l-0.199-0.028c-0.578-0.082-1.154-0.169-1.732-0.257
		c-1.219-0.185-2.479-0.375-3.805-0.531l-0.285-0.034l-0.287-0.017l-5.354-0.32l-0.138-0.008l-0.138-0.004L76.312,0.247
		l-5.201-0.189l-0.146-0.005l-0.146-0.001l-5.295-0.038l-0.059,0l-0.059,0h-0.078c-0.23,0-0.459-0.003-0.688-0.006
		C64.327,0.004,64.014,0,63.701,0c-0.441,0-0.884,0.007-1.327,0.026L62.285,0.03l-0.089,0.005l-2.661,0.162
		c-0.625,0.041-1.219,0.075-1.812,0.111c-1.198,0.071-2.437,0.145-3.664,0.241l-0.067,0.005L53.923,0.56L43.471,1.522
		c-0.604,0.057-1.198,0.107-1.791,0.158c-1.163,0.101-2.366,0.204-3.611,0.34l-0.034,0.003l-0.033,0.004l-5.14,0.598
		c-1.831,0.172-3.541,0.481-5.054,0.755l-0.902,0.162l-0.067,0.012l-0.067,0.013c-0.557,0.106-1.115,0.202-1.674,0.299
		c-1.202,0.208-2.564,0.443-3.975,0.773l-0.058,0.014l-0.058,0.014c-2.401,0.592-4.548,1.271-6.562,2.078l-0.026,0.011l-0.026,0.011
		c-1.876,0.764-4.683,2.03-7.43,4.218c-0.679,0.534-1.208,1.049-1.562,1.393c-0.064,0.063-0.129,0.126-0.193,0.187l-0.584,0.545
		l-0.49,0.631l-0.098,0.118c-0.393,0.474-1.051,1.266-1.686,2.386l-0.058,0.101c-0.39,0.685-1.095,1.925-1.567,3.607
		c-0.162,0.502-0.434,1.385-0.561,2.537l-0.007,0.067l-0.007,0.067L0.08,23.38c-0.123,1.085-0.104,2.173,0.061,3.313l0.1,0.769
		l0.051,0.39l0.018,0.085c0.08,0.473,0.18,0.87,0.269,1.192l0.032,0.118l0.035,0.117l0.047,0.157l0.094,0.31l0.189,0.629L1.136,31
		l0.223,0.519l0.104,0.246c0.244,0.579,0.578,1.372,1.064,2.234l0.08,0.144l0.086,0.141l0.113,0.192
		c0.248,0.426,0.647,1.112,1.213,1.86c1.341,1.847,2.721,3.233,3.836,4.353c0.234,0.236,0.465,0.466,0.686,0.695
		c0.182,0.187,0.324,0.339,0.434,0.463v0.804c-0.004,1.876,0.031,3.8,0.105,5.694c0.141,3.872,0.41,7.673,0.8,11.271
		c0.933,8.541,2.491,16.032,4.767,22.912c2.789,8.442,6.671,15.857,11.537,22.035c5.393,6.894,12.42,12.539,20.299,16.299
		l0.176,0.083l0.178,0.077c0.247,0.106,0.492,0.216,0.736,0.324c0.57,0.254,1.215,0.542,1.941,0.83l0.207,0.082l0.211,0.073
		l2.604,0.902c0.907,0.312,1.707,0.527,2.35,0.701c0.236,0.063,0.475,0.127,0.713,0.196c0.947,0.279,1.967,0.536,3.175,0.8
		c3.946,0.932,7.813,1.547,11.134,2.052l0.041,0.007l0.041,0.006l5.227,0.75l0.058,0.008l0.057,0.008
		c2.202,0.29,4.176,0.483,6.032,0.591c1.578,0.097,3.213,0.147,4.818,0.147c2.479,0,4.969-0.12,7.403-0.356
		c9.544-0.923,17.876-3.611,24.762-7.99l0.06-0.038l0.059-0.038l1.137-0.746l0.289-0.189l0.108-0.071l0.106-0.074l0.162-0.112
		l0.129-0.09l0.127-0.094l0.132-0.098l0.525-0.391l2.108-1.564l0.099-0.073l0.097-0.076c0.533-0.415,1.062-0.852,1.59-1.289
		c0.219-0.181,0.436-0.361,0.654-0.54l0.035-0.028l0.035-0.029l1.035-0.859l0.21-0.174l0.199-0.186l0.917-0.849
		c3.076-2.754,5.926-5.934,8.474-9.455c2.376-3.161,4.417-6.744,6.419-11.265l0.041-0.093l0.039-0.094l1.014-2.42
		c0.357-0.863,0.628-1.658,0.845-2.298c0.077-0.229,0.155-0.46,0.237-0.688c0.543-1.488,0.963-2.91,1.334-4.165
		c0.14-0.476,0.279-0.95,0.426-1.425l0.04-0.128l0.036-0.13c1.043-3.732,1.885-7.398,2.7-10.942
		c0.761-3.308,1.479-6.432,2.328-9.508l0.015-0.055l0.015-0.054c0.274-1.039,0.508-2.164,0.724-3.228l0.457-2.231l0.117-0.01
		l0.273-0.046c0.112-0.005,0.222-0.005,0.332-0.008c0.354-0.008,0.706-0.018,1.068-0.039l1.101-0.044l0.334-0.015
		c0.495,0.025,1.002,0.044,1.51,0.063c0.58,0.021,1.41,0.05,1.875,0.095c0.119,0.549,0.235,1.134,0.331,1.613
		c0.289,1.446,0.615,3.082,1.095,4.795c0.839,3.16,1.622,6.344,2.396,9.732c1.513,6.5,3.385,14.541,6.771,22.175l0.077,0.175
		l0.084,0.171l1.179,2.403l0.036,0.075l0.039,0.075c0.038,0.075,0.074,0.151,0.11,0.227c0.167,0.345,0.396,0.815,0.712,1.367
		l0.037,0.065l0.038,0.065l0.697,1.176l0.054,0.091l0.056,0.09c0.116,0.186,0.226,0.377,0.336,0.566
		c0.373,0.642,0.835,1.435,1.46,2.299l1.519,2.146l0.119,0.169l0.125,0.163c2.528,3.279,5.38,6.346,8.478,9.117
		c0.64,0.597,1.244,1.091,1.736,1.493c0.188,0.153,0.375,0.306,0.559,0.462l0.031,0.027l0.031,0.026
		c0.785,0.659,1.632,1.36,2.61,2.067l2.104,1.568l0.266,0.198l0.278,0.18c0.224,0.146,0.444,0.293,0.664,0.439
		c0.523,0.349,1.117,0.744,1.799,1.157l0.029,0.018l0.029,0.018c3.804,2.269,7.813,4.003,12.256,5.302
		c5.946,1.726,12.357,2.598,19.073,2.598c1.863,0,3.777-0.067,5.689-0.201l0.032-0.002l0.032-0.003
		c1.887-0.144,3.875-0.358,5.912-0.638l5.242-0.735l0.054-0.008l0.054-0.008c3.268-0.495,7.153-1.127,11.205-2.062l0.049-0.012
		l0.049-0.012c3.614-0.873,7.909-2.057,12.358-4.222l0.177-0.086l0.173-0.093c0.241-0.13,0.482-0.255,0.723-0.38
		c0.544-0.284,1.16-0.605,1.826-0.984l0.127-0.072l0.124-0.075c0.229-0.139,0.459-0.275,0.689-0.412
		c0.598-0.354,1.275-0.755,1.986-1.224c2.006-1.32,3.744-2.601,5.309-3.91c6.45-5.389,11.897-12.481,15.746-20.507
		c3.274-6.778,5.653-14.287,7.262-22.932c1.321-7.175,2.044-14.62,2.213-22.778c0.037-1.71,0.049-3.511,0.033-5.49
		c0.309-0.34,0.723-0.763,0.963-1.009l0.244-0.248c1.347-1.365,3.183-3.227,4.744-5.834c0.477-0.765,0.9-1.585,1.289-2.496
		c0.462-1.002,0.713-1.867,0.869-2.409l0.055-0.186l0.025-0.081l0.023-0.082l0.017-0.058c0.048-0.154,0.091-0.303,0.128-0.443
		l0.016-0.054l0.007-0.03c0.123-0.482,0.187-0.873,0.229-1.132l0.031-0.195l0.023-0.195l0.039-0.326l0.079-0.651l0.048-0.392
		l0.017-0.395C313.062,24.936,313.083,23.149,312.666,21.232z"/>
	<g>
		<path fill="#7163BA" d="M288.48,15.778c-9.934-2.267-20.694-2.674-30.82-3.809c-10.271-1.152-20.547-0.13-30.938-0.032
			c-15.115,0.143-28.604,5.979-38.368,11.792c-9.252,5.509-20.456,8.061-31.567,7.711v-0.012c-0.088,0.003-0.177,0.003-0.264,0.006
			c-0.088-0.003-0.176-0.002-0.264-0.006v0.012c-11.111,0.346-22.316-2.21-31.565-7.723c-9.761-5.818-23.248-11.658-38.363-11.807
			c-10.392-0.102-20.667-1.128-30.938,0.02c-10.126,1.131-20.887,1.534-30.821,3.797c-4.43,1.009-14.271,3.93-12.81,10.216
			c1.469,6.325,8.902,7.671,8.862,15.233c-0.144,26.611,5.188,56.461,30.072,69.114c7.071,3.596,17.793,5.074,25.694,6.228
			c12.554,1.832,27.002,0.488,37.317-6.819c8.224-5.827,14.519-12.437,18.524-21.537c4.354-9.89,5.342-20.194,7.936-30.677
			c1.689-6.828,0.779-13.576,9.313-15.219c1.465-0.282,4.144-0.59,7.04-0.59c2.896,0,5.574,0.31,7.039,0.593
			c8.533,1.646,7.62,8.394,9.308,15.223c2.591,10.484,3.574,20.789,7.924,30.679c4.002,9.103,10.294,15.714,18.517,21.544
			c10.313,7.313,24.76,8.661,37.313,6.834c7.902-1.149,18.625-2.625,25.698-6.218c24.889-12.644,30.231-42.491,30.099-69.103
			c-0.038-7.562,7.396-8.905,8.868-15.23C302.749,19.713,292.91,16.789,288.48,15.778z"/>
		<path fill="#89DBFF" d="M180.169,43.819c1.384-4.436,3.525-8.593,6.528-11.873c5.512-6.023,13.266-10.537,20.998-13.019
			c7.825-2.512,16.108-2.753,24.254-3.049c6.969-0.253,14,0.169,20.8,1.788c19.743,4.703,34.205,21.075,32.665,41.768
			c-1.136,15.26-7.747,31.469-20.108,41.116c-8.188,6.39-18.365,9.357-28.622,10.02c-10.815,0.699-21.934,0.453-31.951-4.173
			c-10.011-4.623-16.902-13.336-20.933-23.419c-2.152-5.385-4.146-11.443-5.017-17.191
			C177.681,58.504,177.967,50.875,180.169,43.819z"/>
		<path fill="#89DBFF" d="M133.362,43.81c-1.382-4.437-3.522-8.594-6.523-11.875c-5.511-6.024-13.263-10.542-20.993-13.027
			c-7.824-2.514-16.107-2.759-24.253-3.058c-6.969-0.256-14.001,0.163-20.801,1.78c-19.745,4.695-34.214,21.062-32.681,41.755
			c1.13,15.261,7.735,31.472,20.093,41.124c8.185,6.393,18.362,9.364,28.618,10.031c10.814,0.702,21.934,0.46,31.952-4.162
			c10.013-4.619,16.907-13.329,20.942-23.411c2.153-5.384,4.15-11.441,5.022-17.189C135.843,58.497,135.561,50.868,133.362,43.81z"
			/>
		<g>
			<circle fill="#FFFFFF" cx="231.755" cy="63.308" r="33.468"/>
			<circle fill="#45333F" cx="227.666" cy="59.584" r="23.857"/>
			<circle fill="#FFFFFF" cx="218.177" cy="54.867" r="14.932"/>
		</g>
		<g>
			<circle fill="#FFFFFF" cx="79.885" cy="60.335" r="33.467"/>
			<circle fill="#45333F" cx="83.975" cy="56.612" r="23.857"/>
			<circle fill="#FFFFFF" cx="93.464" cy="51.895" r="14.932"/>
		</g>
	</g>
</g>
</svg>
