<?xml version="1.0" encoding="utf-8"?>
<!-- Generator: Adobe Illustrator 16.0.0, SVG Export Plug-In . SVG Version: 6.00 Build 0)  -->
<!DOCTYPE svg PUBLIC "-//W3C//DTD SVG 1.1//EN" "http://www.w3.org/Graphics/SVG/1.1/DTD/svg11.dtd">
<svg version="1.1" id="OBJECTS" xmlns="http://www.w3.org/2000/svg" xmlns:xlink="http://www.w3.org/1999/xlink" x="0px" y="0px"
	 width="244.51px" height="250.13px" viewBox="0 0 244.51 250.13" enable-background="new 0 0 244.51 250.13" xml:space="preserve">
<g>
	<g>
		<g>
			<g>
				<path fill="#FFFFFF" d="M234.477,193.094c-0.218-6.5-0.879-11.818-3.591-17.797c-2.577-5.686-6.259-11.2-11.337-14.939
					c-5.867-4.321-13.583-6.95-20.762-4.629c-2.469,0.799-4.773,1.988-7.286,2.923c-0.71,0.264-1.395,0.438-2.067,0.569
					c0.469-1.371,0.915-2.74,1.309-4.105c5.298-18.349,2.476-36.943-0.253-54.926c-1.601-10.55-3.258-21.459-3.21-32.09
					c0.09-19.896,2.424-40.266,4.696-57.566L187.912,10c-0.001,0.01-0.002,0.02-0.004,0.028c-0.021,0.173-0.059,0.347-0.084,0.519
					c-9.541-0.025-37.821,0.718-53.547,9.906c-19.113,11.168-28.217,25.658-42.643,26.1c10.619,4.094,58.063,32.736,84.838-1.094
					c-4.383,12.281-9.519,23.824-18.412,32.874c-6.99,7.111-14.804,13.459-23.223,18.863c-6.338,4.069-13.604,7.679-21.295,11.503
					c-17.57,8.731-37.125,18.456-46.771,35.629c-11.708-5.495-20.997-15.93-35.355-9.082c-37.491,17.88-21.632,80.085,15.876,87.01
					c9.233,1.705,21.052-0.413,29.605-3.929c21.767-8.946,56.062-48.164,27.962-69.298c-9.107-6.85-20.416-0.603-30.576-2.198
					c-0.871-0.137-1.712-0.331-2.529-0.573c-0.396-0.118-0.79-0.247-1.181-0.381c9.009-15.725,27.153-24.743,44.793-33.51
					c7.796-3.873,15.158-7.533,21.685-11.723c8.676-5.569,16.729-12.11,23.932-19.439c10.965-11.156,16.42-25.543,21.487-40.541
					c0.825-2.443,1.771-4.955,2.708-7.412c-1.125,11.287-1.942,23.126-1.996,34.83c-0.048,10.949,1.632,22.018,3.256,32.723
					c2.664,17.545,5.417,35.689,0.369,53.174c-0.506,1.75-1.087,3.506-1.723,5.271c-4.252-0.803-7.916-3.838-11.773-6.545
					c-4.582-3.217-9.518-6.29-15.089-7.371c-3.313-0.643-6.672-0.404-9.874,0.699c-7.943,2.738-14.932,8.791-18.461,16.46
					c-5.396,11.729-4.455,26.577-0.028,38.384c7.196,19.188,24.694,33.581,44.779,37.813c5.493,1.157,11.741,1.765,17.351,1.262
					c6.215-0.557,12.523-1.982,17.973-5.11c11.311-6.492,21.043-17.963,23.707-30.918
					C234.4,200.363,234.598,196.722,234.477,193.094z"/>
				<g>
					<path fill="none" stroke="#A79895" stroke-width="3" stroke-linecap="round" stroke-miterlimit="10" d="M191.832,158.526
						c-0.109,0.042-0.221,0.084-0.331,0.125c-0.71,0.264-1.395,0.438-2.067,0.569c0.271-0.792,0.534-1.584,0.784-2.374"/>
					
						<path fill="none" stroke="#A79895" stroke-width="3" stroke-linecap="round" stroke-miterlimit="10" stroke-dasharray="4.992,4.992" d="
						M191.557,152.037c4.168-17.347,1.509-34.87-1.067-51.848c-1.601-10.55-3.258-21.459-3.21-32.09
						c0.081-18.028,2.006-36.444,4.057-52.615"/>
					<path fill="none" stroke="#A79895" stroke-width="3" stroke-linecap="round" stroke-miterlimit="10" d="M191.652,13.011
						c0.107-0.833,0.216-1.658,0.323-2.478L187.912,10c-0.001,0.01-0.002,0.02-0.004,0.028c-0.021,0.173-0.059,0.347-0.084,0.519
						c-0.728-0.002-1.564,0.001-2.497,0.011"/>
					
						<path fill="none" stroke="#A79895" stroke-width="3" stroke-linecap="round" stroke-miterlimit="10" stroke-dasharray="4.7928,4.7928" d="
						M180.539,10.67c-12.586,0.442-33.535,2.347-46.262,9.783c-16.893,9.87-25.966,22.335-37.805,25.403"/>
					<path fill="none" stroke="#A79895" stroke-width="3" stroke-linecap="round" stroke-miterlimit="10" d="M94.122,46.333
						c-0.813,0.119-1.642,0.194-2.487,0.22c0.637,0.245,1.406,0.579,2.295,0.982"/>
					
						<path fill="none" stroke="#A79895" stroke-width="3" stroke-linecap="round" stroke-miterlimit="10" stroke-dasharray="5.1534,5.1534" d="
						M98.599,49.709c16.446,7.674,51.515,23.011,74.517-0.435"/>
					<path fill="none" stroke="#A79895" stroke-width="3" stroke-linecap="round" stroke-miterlimit="10" d="M174.871,47.38
						c0.542-0.616,1.075-1.257,1.602-1.921c-0.281,0.787-0.564,1.57-0.853,2.351"/>
					
						<path fill="none" stroke="#A79895" stroke-width="3" stroke-linecap="round" stroke-miterlimit="10" stroke-dasharray="5.0648,5.0648" d="
						M173.804,52.538c-3.857,9.604-8.582,18.508-15.743,25.795c-6.99,7.111-14.804,13.459-23.223,18.863
						c-6.338,4.069-13.604,7.679-21.295,11.503c-16.066,7.984-33.791,16.799-44.084,31.379"/>
					<path fill="none" stroke="#A79895" stroke-width="3" stroke-linecap="round" stroke-miterlimit="10" d="M68.052,142.182
						c-0.444,0.702-0.871,1.418-1.28,2.146c-0.755-0.354-1.5-0.729-2.236-1.118"/>
					
						<path fill="none" stroke="#A79895" stroke-width="3" stroke-linecap="round" stroke-miterlimit="10" stroke-dasharray="4.9217,4.9217" d="
						M60.254,140.781c-8.937-5.313-17.23-11.07-28.838-5.535c-37.491,17.88-21.632,80.085,15.876,87.01
						c9.233,1.705,21.052-0.413,29.605-3.929c21.767-8.946,56.062-48.164,27.962-69.298c-8.774-6.6-19.592-1.042-29.458-2.054"/>
					<path fill="none" stroke="#A79895" stroke-width="3" stroke-linecap="round" stroke-miterlimit="10" d="M72.972,146.578
						c-0.412-0.095-0.817-0.202-1.218-0.32c-0.396-0.118-0.79-0.247-1.181-0.381c0.415-0.725,0.851-1.436,1.304-2.133"/>
					
						<path fill="none" stroke="#A79895" stroke-width="3" stroke-linecap="round" stroke-miterlimit="10" stroke-dasharray="4.8943,4.8943" d="
						M74.756,139.787c9.777-12.096,25.383-19.852,40.61-27.42c7.796-3.873,15.158-7.533,21.685-11.723
						c8.676-5.569,16.729-12.11,23.932-19.439c10.965-11.156,16.42-25.543,21.487-40.541c0.31-0.919,0.638-1.847,0.976-2.778"/>
					<path fill="none" stroke="#A79895" stroke-width="3" stroke-linecap="round" stroke-miterlimit="10" d="M184.293,35.59
						c0.293-0.782,0.589-1.563,0.885-2.338c-0.083,0.826-0.164,1.655-0.242,2.487"/>
					
						<path fill="none" stroke="#A79895" stroke-width="3" stroke-linecap="round" stroke-miterlimit="10" stroke-dasharray="4.8789,4.8789" d="
						M184.499,40.598c-0.763,9.023-1.274,18.295-1.317,27.484c-0.048,10.949,1.632,22.018,3.256,32.723
						c2.664,17.545,5.417,35.689,0.369,53.174c-0.056,0.191-0.112,0.383-0.169,0.575"/>
					<path fill="none" stroke="#A79895" stroke-width="3" stroke-linecap="round" stroke-miterlimit="10" d="M185.902,156.888
						c-0.261,0.785-0.534,1.573-0.818,2.362c-0.819-0.154-1.617-0.393-2.398-0.694"/>
					
						<path fill="none" stroke="#A79895" stroke-width="3" stroke-linecap="round" stroke-miterlimit="10" stroke-dasharray="5.0452,5.0452" d="
						M178.246,156.179c-1.651-1.083-3.275-2.309-4.936-3.474c-4.582-3.217-9.518-6.29-15.089-7.371
						c-3.313-0.643-6.672-0.404-9.874,0.699c-7.943,2.738-14.932,8.791-18.461,16.46c-5.396,11.729-4.455,26.577-0.028,38.384
						c7.196,19.188,24.694,33.581,44.779,37.813c5.493,1.157,11.741,1.765,17.351,1.262c6.215-0.557,12.523-1.982,17.973-5.11
						c11.311-6.492,21.043-17.963,23.707-30.918c0.732-3.561,0.93-7.202,0.809-10.83c-0.218-6.5-0.879-11.818-3.591-17.797
						c-2.577-5.686-6.259-11.2-11.337-14.939c-5.867-4.321-13.583-6.95-20.762-4.629c-1.574,0.51-3.082,1.178-4.62,1.838"/>
				</g>
			</g>
			<path fill="#FFFFFF" d="M187.912,10l4.063,0.533c-2.272,17.301-4.606,37.67-4.696,57.566c-0.048,10.631,1.609,21.54,3.209,32.09
				c2.729,17.982,5.552,36.577,0.254,54.926c-0.394,1.365-0.84,2.734-1.309,4.105c0.673-0.131,1.357-0.306,2.067-0.569
				c2.513-0.935,4.817-2.124,7.286-2.923c1.838-0.594,3.711-0.863,5.58-0.863c5.428,0,10.817,2.277,15.182,5.492
				c5.078,3.739,8.76,9.254,11.337,14.939c2.712,5.979,3.373,11.297,3.591,17.797c0.121,3.628-0.076,7.27-0.809,10.83
				c-2.664,12.955-12.396,24.426-23.707,30.918c-5.449,3.128-11.758,4.554-17.973,5.11c-1.353,0.121-2.742,0.178-4.149,0.178
				c-4.429,0-9.032-0.562-13.202-1.439c-20.084-4.232-37.583-18.626-44.778-37.813c-4.427-11.807-5.368-26.654,0.028-38.384
				c3.529-7.669,10.518-13.722,18.461-16.46c2.031-0.699,4.123-1.051,6.229-1.051c1.215,0,2.434,0.117,3.646,0.352
				c5.571,1.081,10.507,4.154,15.089,7.371c3.857,2.707,7.521,5.742,11.773,6.545c0.636-1.766,1.217-3.521,1.723-5.271
				c5.048-17.484,2.295-35.629-0.369-53.174c-1.624-10.705-3.304-21.773-3.256-32.723c0.054-11.704,0.871-23.543,1.996-34.83
				c-0.937,2.457-1.883,4.969-2.708,7.412c-5.067,14.998-10.522,29.385-21.487,40.541c-7.203,7.329-15.256,13.87-23.932,19.439
				c-6.526,4.189-13.889,7.85-21.685,11.723c-17.64,8.767-35.784,17.785-44.793,33.51c0.392,0.134,0.784,0.263,1.181,0.381
				c0.817,0.242,1.658,0.437,2.529,0.573c1.232,0.194,2.483,0.272,3.744,0.272c5.262,0,10.711-1.359,15.916-1.359
				c3.828,0,7.525,0.735,10.916,3.285c28.1,21.134-6.195,60.352-27.962,69.298c-6.489,2.667-14.854,4.53-22.548,4.53
				c-2.448,0-4.829-0.189-7.058-0.602c-37.508-6.924-53.367-69.13-15.876-87.01c3.346-1.596,6.417-2.252,9.307-2.252
				c9.512,0,17.068,7.119,26.049,11.333c9.646-17.172,29.201-26.896,46.771-35.628c7.691-3.824,14.957-7.434,21.295-11.503
				c8.419-5.404,16.232-11.752,23.223-18.864c8.894-9.049,14.029-20.592,18.412-32.873c-9.695,12.25-22.096,16.307-34.482,16.307
				c-21.818,0-43.582-12.602-50.356-15.213c14.427-0.441,23.53-14.932,42.644-26.1c15.485-9.049,43.145-9.906,53.096-9.906
				c0.154,0,0.307,0,0.451,0c0.025-0.173,0.063-0.346,0.084-0.519C187.91,10.02,187.911,10.01,187.912,10 M187.9,0
				c-1.15,0-2.264,0.197-3.305,0.564c-14.958,0.191-39.598,2.043-55.363,11.254c-8.019,4.686-14.251,9.767-19.75,14.25
				c-8.086,6.592-12.916,10.328-18.154,10.489c-4.758,0.146-8.754,3.624-9.553,8.317c-0.799,4.691,1.82,9.297,6.262,11.009
				c0.96,0.37,2.797,1.23,4.74,2.142c10.246,4.803,29.316,13.74,49.213,13.74c3.156,0,6.207-0.219,9.146-0.656
				c-0.069,0.072-0.139,0.143-0.209,0.214c-6.471,6.583-13.701,12.457-21.492,17.457c-5.87,3.77-12.888,7.257-20.317,10.95
				c-15.935,7.92-33.659,16.729-45.464,31.432c-6.422-3.852-13.699-8.168-22.932-8.168c-4.542,0-9.122,1.085-13.611,3.227
				c-19.51,9.304-29.684,29.828-26.552,53.562c3.505,26.563,21.976,48.072,44.917,52.308c2.755,0.51,5.74,0.768,8.873,0.768
				c8.58,0,18.184-1.926,26.35-5.281c8.996-3.697,19.279-11.394,27.507-20.586c3.044-3.402,6.427-7.681,9.384-12.607
				c0.705,3.369,1.674,6.723,2.905,10.006c8.316,22.177,28.272,39.07,52.081,44.086c5.137,1.083,10.414,1.655,15.263,1.655
				c1.733,0,3.429-0.073,5.042-0.218c8.701-0.779,15.916-2.871,22.058-6.396c14.765-8.475,25.428-22.521,28.524-37.576
				c0.839-4.075,1.168-8.387,1.008-13.18c-0.254-7.596-1.113-14.174-4.478-21.594c-3.692-8.142-8.575-14.487-14.515-18.861
				c-6.514-4.798-14.012-7.439-21.111-7.439c-0.456,0-0.911,0.01-1.364,0.031c1.981-15.837-0.353-31.222-2.626-46.203
				c-1.547-10.188-3.142-20.7-3.098-30.549c0.087-19.348,2.38-39.32,4.611-56.309c0.346-2.629-0.368-5.289-1.983-7.393
				s-4-3.479-6.63-3.824l-4.063-0.533C188.772,0.027,188.334,0,187.9,0L187.9,0z M93.99,135.744
				c7.664-5.396,16.83-9.951,25.826-14.422c8.043-3.996,15.639-7.771,22.637-12.263c9.301-5.97,17.935-12.983,25.661-20.846
				c2.077-2.114,3.974-4.308,5.716-6.571c0.649,7.008,1.695,13.902,2.72,20.655c2.134,14.052,4.327,28.508,2.179,41.993
				c-5.365-3.746-11.336-7.365-18.604-8.773c-1.83-0.355-3.697-0.535-5.549-0.535c-3.219,0-6.411,0.537-9.486,1.598
				c-9.469,3.263-17.705,10.063-22.627,18.536c-2.436-5.351-6.335-10.124-11.593-14.079
				C106.146,137.484,100.624,135.753,93.99,135.744L93.99,135.744z"/>
		</g>
	</g>
	<g>
		<g>
			<path fill="#FFFFFF" d="M229.736,205.643l0.23-1.232l0.161-1.064c0.097-0.724,0.185-1.491,0.241-2.246
				c0.119-1.519,0.156-3.061,0.127-4.617l-0.014-0.584l-0.02-0.564l-0.056-1.252c-0.027-0.865-0.101-1.582-0.151-2.365
				c-0.047-0.77-0.16-1.537-0.234-2.306c-0.098-0.762-0.23-1.503-0.344-2.255c-0.297-1.472-0.638-2.923-1.111-4.331
				c-0.469-1.431-1.018-2.755-1.688-4.204c-1.3-2.748-2.886-5.415-4.733-7.727c-0.926-1.161-1.921-2.241-2.983-3.218
				c-1.067-0.983-2.162-1.816-3.469-2.658c-1.149-0.74-2.487-1.469-3.786-2.026c-1.314-0.57-2.665-0.998-4.016-1.283
				c-2.703-0.571-5.397-0.509-7.854,0.273l-1.051,0.382c-0.4,0.142-0.791,0.285-1.106,0.427l-2.163,0.914
				c-0.754,0.332-1.621,0.67-2.459,1.004l-0.314,0.126l-0.25,0.088l-0.075,0.024l-0.149,0.047l-0.597,0.191
				c-0.157,0.059-0.505,0.141-0.788,0.21l-0.887,0.205c-2.109,0.485-4.215-0.83-4.7-2.94c-0.163-0.705-0.124-1.41,0.079-2.054
				l0.072-0.228l0.679-2.129l0.34-1.064l0.171-0.532l0.042-0.133l0.011-0.033c-0.008,0.032,0.034-0.119-0.016,0.063l0.018-0.071
				l0.074-0.283c0.379-1.493,0.842-3.072,1.082-4.424c0.141-0.706,0.306-1.388,0.429-2.112l0.353-2.19
				c0.234-1.46,0.375-2.941,0.535-4.418c0.251-2.966,0.379-5.953,0.354-8.961c-0.033-3.008-0.156-6.027-0.412-9.06
				c-0.469-6.062-1.334-12.16-2.246-18.303c-0.922-6.151-1.904-12.351-2.648-18.662c-0.199-1.571-0.336-3.166-0.507-4.748
				l-0.376-4.788c-0.179-3.203-0.289-6.455-0.22-9.676c0.056-3.12,0.089-6.223,0.256-9.424c0.109-3.189,0.309-6.337,0.518-9.48
				c0.183-3.149,0.493-6.279,0.734-9.42c0.313-3.128,0.585-6.265,0.938-9.384c0.662-6.25,1.453-12.469,2.254-18.68l3.445,4.486
				l-4.063-0.533l4.476-3.372c0.001-0.008-0.009,0.064,0.001-0.008l-0.005,0.034l-0.011,0.068l-0.022,0.136l-0.044,0.273
				l-0.014,0.08c-0.32,1.97-2.025,3.37-3.959,3.368c-8.611-0.001-17.281,0.52-25.759,1.715c-4.232,0.619-8.432,1.393-12.493,2.475
				c-4.055,1.078-8.017,2.42-11.564,4.247c-0.456,0.214-0.87,0.473-1.307,0.705l-0.324,0.179c-0.03,0.012-0.212,0.126-0.311,0.184
				l-0.708,0.424c-0.979,0.578-1.782,1.098-2.683,1.672c-1.777,1.145-3.518,2.363-5.238,3.625
				c-3.445,2.523-6.783,5.258-10.213,8.055c-3.441,2.783-6.971,5.666-11.096,8.16c-2.072,1.231-4.313,2.343-6.732,3.172
				c-2.426,0.813-5.028,1.304-7.63,1.393l0,0l1.316-7.73c1.006,0.552,1.868,1.06,2.723,1.59l2.521,1.521
				c1.663,1,3.325,1.951,4.992,2.897c3.347,1.854,6.766,3.542,10.267,5.032c3.498,1.497,7.086,2.77,10.737,3.8
				c3.652,1.015,7.375,1.777,11.127,2.164c3.747,0.391,7.527,0.449,11.23,0.007c3.702-0.421,7.32-1.349,10.697-2.763
				c1.679-0.73,3.303-1.567,4.832-2.543c1.533-0.97,2.991-2.044,4.33-3.251c1.33-1.218,2.598-2.493,3.732-3.884
				c1.133-1.395,2.162-2.869,3.073-4.413l0.001-0.001l0.057-0.068c1.408-1.702,3.929-1.94,5.631-0.532
				c1.33,1.101,1.762,2.89,1.216,4.428c-2.161,6.046-4.56,12.119-7.646,17.981c-3.076,5.852-6.896,11.492-11.67,16.342
				c-1.228,1.199-2.222,2.236-3.466,3.39c-1.205,1.137-2.414,2.265-3.639,3.325c-2.431,2.172-4.971,4.216-7.545,6.213
				c-2.607,1.955-5.238,3.88-7.977,5.648l-1.02,0.675l-0.553,0.354l-0.503,0.313c-0.682,0.419-1.322,0.835-2.036,1.257l-2.148,1.265
				l-2.125,1.194c-5.673,3.138-11.402,5.925-17.05,8.744c-5.642,2.813-11.204,5.646-16.513,8.779
				c-5.307,3.127-10.373,6.553-14.865,10.507c-4.498,3.94-8.377,8.444-11.227,13.495l-0.008,0.016
				c-1.033,1.83-3.307,2.524-5.179,1.646c-6.247-2.951-11.399-6.868-16.612-9.136c-2.592-1.134-5.14-1.804-7.65-1.811
				c-2.509-0.017-5.025,0.62-7.497,1.778l-0.116,0.051c0.019-0.01-0.124,0.06,0.028-0.017l-0.066,0.034l-0.266,0.135l-0.532,0.269
				c-0.338,0.177-0.747,0.366-1.026,0.532c-0.584,0.347-1.162,0.64-1.768,1.046c-1.22,0.736-2.343,1.6-3.451,2.477
				c-2.161,1.815-4.11,3.877-5.714,6.203c-3.243,4.627-5.236,10.156-5.992,15.92c-0.768,5.767-0.397,11.751,0.945,17.516
				c1.327,5.771,3.614,11.34,6.724,16.355c3.107,5.014,7.088,9.454,11.757,12.85c2.345,1.676,4.844,3.114,7.486,4.185
				c1.313,0.553,2.666,1.001,4.036,1.374c0.686,0.186,1.375,0.356,2.072,0.488l0.521,0.11l0.065,0.014
				c-0.188-0.032-0.01-0.002-0.033-0.006l0.147,0.022l0.294,0.046l1.179,0.185c0.699,0.063,1.29,0.153,2.026,0.189
				c0.716,0.045,1.434,0.087,2.163,0.085c1.45,0.033,2.922-0.047,4.393-0.146c2.945-0.246,5.902-0.729,8.81-1.409
				c2.883-0.681,5.808-1.612,8.427-2.68c2.704-1.129,5.232-2.558,7.74-4.21c4.98-3.31,9.607-7.332,13.723-11.768
				c4.103-4.445,7.727-9.344,10.426-14.589c2.678-5.224,4.4-10.89,4.105-16.258c-0.27-5.361-2.781-10.206-6.944-13.896
				c-1.021-0.913-2.202-1.857-3.167-2.423c-0.953-0.574-2.096-1.018-3.273-1.294c-2.381-0.572-5.168-0.497-8.16-0.181
				c-2.995,0.306-6.199,0.85-9.676,1.049c-1.74,0.092-3.556,0.094-5.426-0.109l-0.705-0.093l-0.352-0.048l-0.437-0.079
				c-0.408-0.083-0.741-0.133-1.212-0.243l-0.753-0.191l-0.376-0.099l-0.188-0.051l-0.256-0.074l-1.135-0.366l-0.02-0.006
				c-2.099-0.677-3.25-2.927-2.573-5.024c0.085-0.266,0.208-0.534,0.341-0.768c1.891-3.282,4.149-6.321,6.657-9.076
				c2.509-2.755,5.248-5.24,8.107-7.505c5.729-4.528,11.899-8.211,18.11-11.566c6.219-3.354,12.5-6.379,18.66-9.479
				c3.074-1.549,6.118-3.116,9.09-4.75c2.98-1.638,5.836-3.342,8.633-5.209c1.483-0.958,2.824-1.914,4.178-2.867
				c1.352-0.97,2.713-1.988,4.045-3.012c2.662-2.065,5.246-4.23,7.752-6.482c2.469-2.268,4.969-4.605,7.195-7.041
				c0.635-0.649,1.066-1.22,1.592-1.823c0.511-0.576,1.008-1.225,1.504-1.872c0.508-0.636,0.994-1.289,1.455-1.964
				c0.473-0.666,0.95-1.328,1.385-2.024c3.608-5.475,6.441-11.548,8.905-17.854c1.235-3.153,2.386-6.368,3.503-9.617l0.852-2.495
				l0.869-2.452c0.561-1.622,1.232-3.317,1.844-4.972c0.765-2.069,3.063-3.127,5.131-2.362c1.731,0.64,2.754,2.352,2.596,4.105
				l-0.008,0.077l-0.714,7.839l-0.571,7.839c-0.193,2.612-0.269,5.224-0.408,7.836c-0.16,2.613-0.15,5.219-0.221,7.828l-0.039,1.957
				l-0.02,0.979l0.001,0.419l0.007,0.496c0.029,1.308,0.016,2.679,0.08,3.935c0.07,1.262,0.108,2.503,0.199,3.782l0.31,3.855
				l0.398,3.865l0.472,3.875c0.346,2.589,0.709,5.183,1.098,7.785c0.774,5.205,1.609,10.453,2.307,15.774
				c0.357,2.654,0.658,5.337,0.92,8.028c0.133,1.346,0.225,2.703,0.338,4.055c0.07,1.362,0.172,2.718,0.215,4.085
				c0.089,2.732,0.141,5.477,0.014,8.236c-0.08,2.757-0.343,5.524-0.68,8.285c-0.207,1.378-0.411,2.759-0.666,4.132
				c-0.305,1.366-0.521,2.749-0.907,4.101l-0.532,2.037l-0.066,0.254l-0.09,0.316l-0.146,0.475l-0.293,0.947
				c-0.358,1.23-0.868,2.622-1.315,3.941c-0.637,1.879-2.563,2.958-4.457,2.585l-0.048-0.01c-3.323-0.649-6.04-2.185-8.325-3.681
				c-2.316-1.534-4.249-3.035-6.273-4.398c-3.979-2.729-8.031-4.99-12.151-5.812c-0.247-0.039-1.304-0.241-1.573-0.229
				c-0.406-0.05-0.908-0.063-1.413-0.075c-0.995,0.011-1.989,0.1-2.971,0.292c-0.485,0.12-0.979,0.211-1.456,0.376l-0.36,0.111
				l-0.09,0.026l-0.046,0.014c-0.102,0.036,0.09-0.034,0.049-0.019l-0.223,0.083l-0.889,0.332c-0.32,0.113-0.545,0.217-0.775,0.318
				l-0.704,0.305c-0.489,0.242-0.997,0.477-1.482,0.739c-3.909,2.089-7.368,5.097-9.881,8.699c-0.637,0.896-1.194,1.836-1.708,2.795
				l-0.36,0.729l-0.182,0.365c-0.02,0.04,0.087-0.197,0.03-0.07l-0.022,0.055l-0.046,0.108l-0.092,0.219l-0.734,1.748
				c-0.719,1.955-1.352,4.217-1.774,6.467c-0.809,4.536-0.895,9.263-0.36,13.938c0.545,4.673,1.674,9.307,3.395,13.665
				c1.722,4.369,4.043,8.506,6.855,12.293c5.625,7.579,13.203,13.735,21.75,17.807c4.262,2.035,8.816,3.562,13.391,4.484
				c4.725,0.966,9.486,1.4,14.116,1.205c4.669-0.265,9.392-1.08,13.606-2.674c1.059-0.396,2.086-0.845,3.071-1.352
				c0.25-0.121,0.494-0.251,0.734-0.387l0.362-0.199l0.092-0.05l0.045-0.024c0.033-0.019-0.125,0.075-0.034,0.021l0.202-0.123
				l1.621-0.983c0.998-0.666,1.865-1.206,2.822-1.945c0.951-0.68,1.848-1.433,2.752-2.175c1.765-1.536,3.446-3.169,4.991-4.919
				c1.523-1.767,2.944-3.615,4.197-5.564c1.228-1.96,2.322-3.992,3.22-6.096c0.867-2.113,1.552-4.281,2.031-6.481L229.736,205.643z
				 M237.586,207.183c-0.592,2.743-1.437,5.409-2.493,7.974c-1.086,2.551-2.396,4.98-3.854,7.303
				c-1.481,2.307-3.146,4.476-4.928,6.535c-1.801,2.042-3.752,3.939-5.803,5.72c-1.048,0.865-2.092,1.735-3.196,2.528
				c-1.043,0.809-2.316,1.622-3.426,2.35l-1.621,0.983l-0.202,0.123l-0.313,0.177l-0.469,0.258
				c-0.311,0.175-0.624,0.342-0.942,0.497c-1.263,0.647-2.558,1.212-3.866,1.703c-5.262,1.972-10.631,2.867-16.043,3.181
				c-5.474,0.235-10.857-0.292-16.037-1.343c-5.338-1.076-10.44-2.799-15.306-5.115c-9.706-4.627-18.293-11.593-24.729-20.259
				c-3.217-4.329-5.889-9.086-7.875-14.125c-1.991-5.051-3.273-10.324-3.901-15.693c-0.611-5.369-0.53-10.854,0.438-16.281
				c0.519-2.719,1.217-5.349,2.27-8.132l0.734-1.748l0.239-0.561l0.238-0.485l0.48-0.97c0.678-1.271,1.415-2.506,2.243-3.673
				c3.284-4.693,7.668-8.493,12.672-11.172c0.627-0.338,1.266-0.638,1.912-0.952l1.035-0.447c0.35-0.15,0.704-0.302,0.979-0.398
				l0.888-0.331l0.223-0.083l0.364-0.12l0.546-0.169c0.721-0.241,1.472-0.397,2.215-0.568c1.501-0.297,3.033-0.44,4.564-0.449
				c0.76,0.015,1.521,0.033,2.371,0.135c0.993,0.097,1.178,0.157,2.176,0.327c2.91,0.579,5.624,1.632,8.122,2.873
				c2.507,1.248,4.786,2.692,6.973,4.182c2.167,1.464,4.24,3.058,6.144,4.311c1.921,1.274,3.752,2.189,5.417,2.507l-4.505,2.575
				c0.397-1.188,0.814-2.276,1.197-3.586l0.293-0.948l0.146-0.474l0.102-0.387l0.471-1.804c0.346-1.192,0.531-2.433,0.807-3.646
				c0.227-1.227,0.409-2.466,0.598-3.702c0.3-2.49,0.543-4.995,0.614-7.528c0.118-2.526,0.069-5.077-0.013-7.632
				c-0.395-10.242-2.132-20.553-3.698-31.071c-0.394-2.631-0.764-5.276-1.118-7.933l-0.486-4.003l-0.416-4.029l-0.325-4.056
				c-0.097-1.359-0.144-2.764-0.216-4.143c-0.066-1.387-0.051-2.663-0.081-4l-0.007-0.496l-0.002-0.572l0.02-1.006l0.041-2.011
				c0.07-2.68,0.063-5.367,0.225-8.037c0.143-2.671,0.223-5.351,0.418-8.015l0.583-7.992l0.726-7.969l7.718,1.82
				c-0.59,1.601-1.202,3.13-1.775,4.787l-0.87,2.452l-0.828,2.431c-1.139,3.312-2.326,6.633-3.622,9.939
				c-2.584,6.607-5.631,13.195-9.665,19.321c-0.484,0.774-1.02,1.522-1.551,2.271c-0.52,0.757-1.068,1.495-1.643,2.217
				c-0.561,0.729-1.119,1.457-1.756,2.183c-0.611,0.706-1.254,1.502-1.834,2.093c-2.461,2.683-5.037,5.089-7.676,7.514
				c-2.656,2.386-5.393,4.68-8.213,6.867c-1.418,1.091-2.836,2.151-4.303,3.203c-1.482,1.045-2.971,2.098-4.403,3.022
				c-2.974,1.984-6.083,3.84-9.184,5.541c-3.108,1.71-6.235,3.319-9.358,4.893c-6.235,3.137-12.461,6.137-18.456,9.372
				c-5.991,3.233-11.778,6.711-16.942,10.797c-2.579,2.042-4.991,4.239-7.155,6.615c-2.163,2.377-4.06,4.941-5.636,7.672
				l-2.252-5.798l1.135,0.366l0.732,0.195c0.301,0.077,0.756,0.151,1.127,0.227l0.146,0.028l0.073,0.014
				c0.056,0.011-0.211-0.036-0.07-0.013l0.239,0.031l0.478,0.064c1.293,0.14,2.669,0.147,4.102,0.071
				c2.879-0.157,5.96-0.668,9.29-1.018c3.312-0.336,6.985-0.547,10.82,0.352c1.915,0.456,3.778,1.156,5.556,2.221
				c0.47,0.284,0.976,0.6,1.242,0.801l0.488,0.343l0.628,0.487c0.704,0.536,1.382,1.12,2.053,1.714
				c2.655,2.404,5.04,5.298,6.714,8.649c1.696,3.332,2.654,7.056,2.855,10.731c0.207,3.685-0.292,7.294-1.193,10.695
				c-0.899,3.412-2.23,6.617-3.776,9.661c-3.13,6.072-7.163,11.479-11.677,16.377c-4.536,4.884-9.569,9.274-15.185,13.009
				c-2.798,1.85-5.831,3.565-8.999,4.889c-3.27,1.336-6.43,2.321-9.733,3.111c-3.285,0.769-6.622,1.315-10.015,1.599
				c-1.701,0.117-3.408,0.207-5.139,0.17c-0.862,0.001-1.732-0.047-2.603-0.103c-0.852-0.041-1.838-0.172-2.72-0.268l-1.178-0.185
				l-0.703-0.115l-0.646-0.135c-0.865-0.167-1.719-0.376-2.568-0.606c-1.698-0.461-3.37-1.019-4.989-1.696
				c-3.255-1.323-6.306-3.078-9.131-5.102c-5.628-4.092-10.272-9.32-13.864-15.109c-3.592-5.797-6.197-12.153-7.724-18.778
				c-1.537-6.617-1.988-13.535-1.079-20.384c0.896-6.832,3.295-13.631,7.365-19.437c2.011-2.911,4.464-5.519,7.175-7.786
				c1.379-1.102,2.79-2.171,4.292-3.084c0.718-0.478,1.552-0.923,2.342-1.374c0.408-0.232,0.724-0.373,1.09-0.564l0.532-0.27
				l0.266-0.135l0.386-0.181c3.274-1.545,7.061-2.563,10.926-2.529c3.868,0.008,7.583,1.063,10.802,2.478
				c3.241,1.42,6.101,3.148,8.837,4.783c2.732,1.64,5.348,3.21,7.978,4.443l-5.188,1.662c3.377-5.99,7.9-11.19,12.916-15.582
				c5.017-4.414,10.497-8.097,16.087-11.394c11.188-6.601,22.918-11.648,33.745-17.628l2.014-1.132l1.943-1.142
				c0.648-0.381,1.336-0.826,2.003-1.236l0.504-0.313l0.445-0.287l0.96-0.636c2.58-1.665,5.059-3.48,7.516-5.321
				c2.424-1.883,4.819-3.808,7.108-5.854c1.169-1.01,2.271-2.043,3.37-3.076c1.081-0.993,2.283-2.237,3.32-3.247
				c4.118-4.183,7.492-9.125,10.301-14.466c2.816-5.345,5.094-11.072,7.189-16.94l6.903,3.827l-0.001,0.001
				c-1.508,1.462-3.035,2.884-4.639,4.214c-1.627,1.305-3.277,2.563-5.029,3.67c-3.485,2.233-7.23,4-11.105,5.231
				c-3.877,1.235-7.871,1.918-11.851,2.206c-3.985,0.273-7.961,0.118-11.884-0.315c-3.924-0.44-7.798-1.156-11.616-2.071
				c-3.823-0.896-7.591-1.996-11.33-3.181c-3.736-1.192-7.435-2.501-11.123-3.822l-5.516-1.963c-1.813-0.619-3.702-1.29-5.319-1.626
				c-2.044-0.426-3.356-2.428-2.931-4.473c0.306-1.47,1.427-2.561,2.792-2.9l1.455-0.357c1.8-0.068,3.566-0.395,5.316-0.977
				c1.747-0.602,3.477-1.443,5.188-2.459c3.422-2.062,6.756-4.743,10.15-7.499c3.394-2.767,6.868-5.618,10.528-8.299
				c1.829-1.341,3.697-2.65,5.621-3.89c0.954-0.61,2.005-1.28,2.922-1.82l0.707-0.424l0.402-0.236l0.397-0.222
				c0.532-0.287,1.059-0.605,1.599-0.862c4.291-2.202,8.73-3.679,13.175-4.865c4.45-1.184,8.926-2.005,13.403-2.659
				c8.964-1.261,17.917-1.795,26.914-1.796l-3.973,3.448l0.094-0.587l0.006-0.039c0.342-2.142,2.333-3.612,4.471-3.334l4.063,0.533
				c2.19,0.287,3.732,2.296,3.445,4.486v0.001c-0.795,6.167-1.579,12.331-2.23,18.494c-0.352,3.081-0.617,6.163-0.926,9.244
				c-0.235,3.082-0.543,6.164-0.721,9.245c-0.205,3.084-0.399,6.165-0.504,9.214c-0.162,3.031-0.196,6.17-0.252,9.289
				c-0.065,3.02,0.038,6.01,0.205,9.037l0.357,4.543c0.164,1.521,0.293,3.036,0.486,4.56c1.424,12.173,3.912,24.496,4.924,37.265
				c0.27,3.187,0.403,6.407,0.438,9.638c0.027,3.234-0.109,6.487-0.387,9.739c-0.338,3.275-0.734,6.451-1.484,9.778
				c-0.33,1.719-0.754,3.136-1.141,4.666l-0.074,0.283l-0.115,0.387l-0.185,0.582l-0.371,1.166l-0.743,2.33l-4.549-5.222
				l0.335-0.076c0.122-0.028,0.187-0.02,0.424-0.104l0.597-0.19l0.149-0.048l0.075-0.024l0.018-0.006
				c0.161-0.055-0.197,0.069-0.154,0.054l0.033-0.013l0.266-0.107c0.715-0.288,1.406-0.551,2.182-0.893l2.457-1.032
				c0.45-0.191,0.845-0.335,1.231-0.473l1.307-0.469c3.927-1.264,8.132-1.302,11.954-0.485c1.92,0.406,3.768,1.003,5.52,1.761
				c1.771,0.769,3.382,1.633,5.041,2.702c1.502,0.966,3.082,2.157,4.47,3.441c1.398,1.285,2.671,2.673,3.828,4.125
				c2.321,2.916,4.167,6.037,5.726,9.327c0.735,1.581,1.475,3.348,2.041,5.095c0.59,1.761,1.019,3.567,1.377,5.372
				c0.141,0.899,0.299,1.804,0.412,2.699c0.091,0.895,0.217,1.783,0.273,2.682c0.061,0.884,0.145,1.832,0.169,2.637l0.056,1.252
				l0.039,1.356c0.033,1.784-0.008,3.587-0.15,5.4c-0.068,0.911-0.17,1.805-0.295,2.736l-0.219,1.413l-0.229,1.231L237.586,207.183z
				"/>
		</g>
		<g>
			<path fill="#3CA107" d="M66.492,153.248l0.947-2.915c0.406-1.007,0.783-2.043,1.221-3.022c0.886-1.938,1.866-3.834,3.002-5.633
				c2.25-3.611,4.975-6.894,7.975-9.843c6.018-5.914,13.053-10.488,20.215-14.539c7.182-4.049,14.572-7.568,21.817-11.225
				c3.622-1.829,7.208-3.693,10.692-5.691c1.717-1,3.49-2.055,5.078-3.112l5.049-3.444c3.214-2.404,6.389-4.753,9.396-7.444
				l2.283-1.961c0.744-0.673,1.451-1.385,2.18-2.074l2.17-2.086l1.084-1.042l0.951-1.065c1.328-1.527,2.807-3.025,3.854-4.607
				l1.719-2.341c0.57-0.784,1.053-1.671,1.584-2.501l1.553-2.534l1.387-2.645c0.967-1.738,1.77-3.574,2.597-5.396
				c1.644-3.649,3.063-7.423,4.438-11.221l1.992-5.742c0.696-1.971,1.352-3.852,2.1-5.8c1.436-3.854,2.947-7.608,4.193-11.409
				c1.249-3.796,2.277-7.623,2.827-11.483l0.001-0.001l3.965,0.521l-1.291,10.426c-0.463,3.474-0.783,6.955-1.146,10.434
				c-0.337,3.479-0.772,6.955-0.968,10.44l-0.742,10.449l-0.32,10.455l-0.076,2.614l-0.038,1.307l0.022,1.268l0.053,2.632
				c0.009,0.883,0.037,1.754,0.105,2.602c0.359,6.829,1.292,13.788,2.318,20.695l1.559,10.421c0.508,3.486,0.972,6.991,1.361,10.515
				c0.162,1.769,0.368,3.529,0.493,5.305c0.099,1.778,0.251,3.552,0.304,5.336c0.019,1.788,0.102,3.572,0.064,5.362
				c-0.078,1.792-0.082,3.585-0.225,5.376c-0.189,1.788-0.298,3.584-0.559,5.366c-0.314,1.775-0.548,3.565-0.933,5.328l-0.646,2.632
				l-0.324,1.315l-0.162,0.658l-0.04,0.164l-0.011,0.041l-0.036,0.114l-0.025,0.078l-0.104,0.313l-1.662,4.996
				c-0.247,0.831-0.615,1.669-0.961,2.506l-1.042,2.509c-0.354,0.833-0.685,1.682-1.058,2.5l-1.184,2.402
				c-1.51,3.245-3.32,6.315-5.066,9.421l-3.436-2.051c1.693-3.014,3.453-5.994,4.904-9.121l1.146-2.318
				c0.354-0.779,0.659-1.567,0.992-2.351l0.981-2.351c0.326-0.784,0.671-1.553,0.926-2.406l1.662-4.996l0.104-0.312l0.026-0.078
				c0.024-0.08-0.019,0.064-0.011,0.035l0.009-0.038l0.038-0.155l0.152-0.621l0.304-1.24l0.611-2.481
				c0.364-1.664,0.581-3.362,0.882-5.041c0.248-1.689,0.348-3.404,0.531-5.104c0.137-1.707,0.139-3.43,0.215-5.144
				c0.036-1.718-0.046-3.443-0.063-5.165c-0.05-1.724-0.199-3.45-0.294-5.176c-0.121-1.726-0.324-3.453-0.481-5.18
				c-0.383-3.453-0.84-6.909-1.344-10.369l-1.557-10.408c-1.032-6.976-1.98-13.95-2.358-21.146
				c-0.144-1.809-0.101-3.524-0.161-5.291l-0.023-1.364l0.039-1.324l0.076-2.649l0.326-10.595l0.748-10.558
				c0.199-3.525,0.637-7.02,0.977-10.527c0.365-3.503,0.688-7.015,1.152-10.5l1.299-10.474l3.965,0.521v0.002
				c-0.598,4.217-1.699,8.282-2.994,12.224c-1.293,3.943-2.828,7.755-4.234,11.536c-0.715,1.855-1.399,3.822-2.061,5.693
				l-2.013,5.807c-1.397,3.862-2.848,7.724-4.55,11.505c-0.857,1.889-1.688,3.788-2.7,5.615l-1.453,2.768l-1.637,2.678
				c-0.565,0.886-1.062,1.795-1.687,2.66l-1.899,2.584c-1.234,1.808-2.638,3.213-3.98,4.76l-1.087,1.212l-1.117,1.075l-2.236,2.151
				c-0.75,0.711-1.48,1.444-2.248,2.138l-2.352,2.022c-3.066,2.747-6.447,5.258-9.758,7.727l-5.048,3.445
				c-1.804,1.201-3.537,2.225-5.339,3.277c-3.585,2.058-7.232,3.953-10.883,5.798c-7.302,3.688-14.639,7.177-21.658,11.133
				c-7.002,3.952-13.753,8.363-19.381,13.897c-2.81,2.76-5.322,5.792-7.385,9.097c-1.042,1.646-1.935,3.377-2.744,5.144
				c-0.395,0.879-0.711,1.762-1.076,2.641l-0.943,2.896L66.492,153.248z"/>
		</g>
		<path fill="#FC6668" d="M71.252,149.873c0.798,0.236,1.619,0.426,2.469,0.561c9.92,1.557,20.96-4.541,29.852,2.146
			c27.434,20.632-6.049,58.921-27.299,67.653c-8.352,3.433-19.889,5.501-28.903,3.836c-36.618-6.76-52.102-67.49-15.5-84.945
			C47.815,131.52,57.355,145.746,71.252,149.873z"/>
		<g>
			<circle fill="#FFFFFF" cx="47.548" cy="164.148" r="9.531"/>
			<circle fill="#45333F" cx="49.457" cy="163.834" r="6.793"/>
			<circle fill="#FFFFFF" cx="52.723" cy="163.812" r="4.253"/>
		</g>
		<g>
			<circle fill="#FFFFFF" cx="78.733" cy="176.775" r="9.531"/>
			<circle fill="#45333F" cx="80.643" cy="176.461" r="6.794"/>
			<circle fill="#FFFFFF" cx="83.908" cy="176.438" r="4.253"/>
		</g>
		
			<ellipse transform="matrix(0.9512 0.3087 -0.3087 0.9512 55.6008 -1.4876)" fill="#FCAEAF" cx="32.502" cy="174.993" rx="7.456" ry="5.592"/>
		
			<ellipse transform="matrix(0.9512 0.3087 -0.3087 0.9512 64.3774 -16.893)" fill="#FCAEAF" cx="85.584" cy="195.037" rx="7.456" ry="5.592"/>
		<path fill="#FED2D1" d="M44.536,196.846c-1.83,4.977,0.722,10.495,5.699,12.325c4.978,1.829,10.496-0.722,12.326-5.699
			l1.656-4.507l-18.024-6.626L44.536,196.846z"/>
		<path fill="#FC6668" d="M198.467,158.523c-2.41,0.779-4.66,1.941-7.113,2.854c-7.12,2.647-12.236-1.928-17.76-5.806
			c-4.473-3.14-9.291-6.14-14.73-7.195c-3.234-0.628-6.514-0.395-9.639,0.683c-7.755,2.673-14.578,8.582-18.023,16.069
			c-5.268,11.45-4.351,25.946-0.027,37.474c7.024,18.732,24.107,32.784,43.717,36.916c5.362,1.13,11.461,1.723,16.939,1.231
			c6.066-0.543,12.225-1.935,17.545-4.989c11.043-6.338,20.543-17.537,23.146-30.184c0.716-3.477,0.907-7.031,0.788-10.573
			c-0.211-6.347-0.857-11.539-3.504-17.376c-2.518-5.55-6.111-10.934-11.068-14.584
			C213.008,158.824,205.475,156.258,198.467,158.523z"/>
		<g>
			<circle fill="#FFFFFF" cx="163.695" cy="180.128" r="9.531"/>
			<circle fill="#45333F" cx="165.428" cy="179.266" r="6.794"/>
			<circle fill="#FFFFFF" cx="168.542" cy="178.282" r="4.252"/>
		</g>
		<g>
			<circle fill="#FFFFFF" cx="197.217" cy="183.009" r="9.531"/>
			<circle fill="#45333F" cx="198.949" cy="182.147" r="6.794"/>
			<circle fill="#FFFFFF" cx="202.063" cy="181.163" r="4.252"/>
		</g>
		
			<ellipse transform="matrix(0.9999 0.0148 -0.0148 0.9999 2.9017 -2.2359)" fill="#FCAEAF" cx="152.512" cy="194.924" rx="7.456" ry="5.592"/>
		
			<ellipse transform="matrix(0.9999 0.0148 -0.0148 0.9999 2.96 -3.0737)" fill="#FCAEAF" cx="209.143" cy="198.442" rx="7.456" ry="5.591"/>
		<path fill="#459719" d="M187.332,12.602c0,0-36.799-1.277-55.46,9.625c-18.661,10.904-27.548,25.051-41.632,25.481
			C103.021,52.635,170.436,93.989,187.332,12.602z"/>
		<path fill="#FED2D1" d="M170.448,212.262c-0.282,5.296,3.781,9.818,9.077,10.1c5.295,0.283,9.817-3.781,10.1-9.076l0.256-4.795
			l-19.178-1.022L170.448,212.262z"/>
	</g>
</g>
</svg>
