<?xml version="1.0" encoding="iso-8859-1"?>
<!-- Generator: Adobe Illustrator 19.0.0, SVG Export Plug-In . SVG Version: 6.00 Build 0)  -->
<svg version="1.1" id="Layer_1" xmlns="http://www.w3.org/2000/svg" xmlns:xlink="http://www.w3.org/1999/xlink" x="0px" y="0px"
	 viewBox="0 0 511.999 511.999" style="enable-background:new 0 0 511.999 511.999;" xml:space="preserve">
<g>
	<g>
		<path d="M428.129,70.914V16.498H0v431.09c0,26.419,21.494,47.913,47.912,47.913h416.175c26.419,0,47.912-21.494,47.912-47.913
			V70.914H428.129z M47.912,465.084c-9.646,0-17.495-7.85-17.495-17.496V46.915h367.294v39.208v15.209v346.257
			c0,6.174,1.186,12.072,3.323,17.496H47.912z M481.584,447.588L481.584,447.588c-0.001,9.647-7.85,17.496-17.496,17.496h-18.462
			c-9.647,0-17.495-7.849-17.495-17.496V101.331h53.453V447.588z"/>
	</g>
</g>
<g>
	<g>
		<rect x="82.664" y="90.896" width="262.804" height="30.417"/>
	</g>
</g>
<g>
	<g>
		<rect x="82.664" y="140.861" width="262.804" height="30.417"/>
	</g>
</g>
<g>
	<g>
		<rect x="82.664" y="190.827" width="262.804" height="30.417"/>
	</g>
</g>
<g>
	<g>
		<rect x="82.664" y="390.678" width="262.804" height="30.417"/>
	</g>
</g>
<g>
	<g>
		<path d="M82.441,240.791v130.344h263.248V240.791H82.441z M315.272,340.718H112.858v-69.51h202.414V340.718z"/>
	</g>
</g>
<g>
</g>
<g>
</g>
<g>
</g>
<g>
</g>
<g>
</g>
<g>
</g>
<g>
</g>
<g>
</g>
<g>
</g>
<g>
</g>
<g>
</g>
<g>
</g>
<g>
</g>
<g>
</g>
<g>
</g>
</svg>
