<?xml version="1.0" encoding="utf-8"?>
<!-- Generator: Adobe Illustrator 16.0.0, SVG Export Plug-In . SVG Version: 6.00 Build 0)  -->
<!DOCTYPE svg PUBLIC "-//W3C//DTD SVG 1.1//EN" "http://www.w3.org/Graphics/SVG/1.1/DTD/svg11.dtd">
<svg version="1.1" id="Capa_1" xmlns="http://www.w3.org/2000/svg" xmlns:xlink="http://www.w3.org/1999/xlink" x="0px" y="0px"
	 width="512px" height="512px" viewBox="0 0 512 512" enable-background="new 0 0 512 512" xml:space="preserve">
<g>
	<path fill="#FFFFFF" stroke="#FFFFFF" stroke-width="13" stroke-miterlimit="10" d="M481.438,137.327
		c-6.351-6.351-16.67-6.351-23.02,0L256,340.143L53.185,137.327c-6.351-6.351-16.67-6.351-23.02,0c-6.351,6.351-6.351,16.67,0,23.02
		l213.929,213.928c3.175,3.176,7.144,4.764,11.51,4.764c3.969,0,8.334-1.588,11.51-4.764l213.929-213.928
		C487.789,153.997,487.789,143.678,481.438,137.327L481.438,137.327z"/>
</g>
</svg>
