<?xml version="1.0" encoding="utf-8"?>
<!-- Generator: Adobe Illustrator 16.0.0, SVG Export Plug-In . SVG Version: 6.00 Build 0)  -->
<!DOCTYPE svg PUBLIC "-//W3C//DTD SVG 1.1//EN" "http://www.w3.org/Graphics/SVG/1.1/DTD/svg11.dtd">
<svg version="1.1" id="Modo_de_aislamiento" xmlns="http://www.w3.org/2000/svg" xmlns:xlink="http://www.w3.org/1999/xlink"
	 x="0px" y="0px" width="194.666px" height="194.666px" viewBox="285.01 239.463 194.666 194.666"
	 enable-background="new 285.01 239.463 194.666 194.666" xml:space="preserve">
<g>
	<circle fill="#FFFFFF" cx="382.343" cy="336.796" r="97.333"/>
	<circle fill="#5FA4E3" cx="382.343" cy="336.797" r="86.082"/>
	<g>
		<path fill="#1A1A1A" d="M382.343,359.068c-21.635,0-41.917-2.932-59.389-8.051c4.587,28.673,29.425,50.584,59.389,50.584
			c29.963,0,54.803-21.911,59.387-50.584C424.262,356.136,403.979,359.068,382.343,359.068z"/>
		<circle fill="#1A1A1A" cx="348.867" cy="319.074" r="6.902"/>
		<circle fill="#F2F2F2" cx="346.883" cy="317.091" r="1.984"/>
		<circle fill="#1A1A1A" cx="415.818" cy="319.074" r="6.902"/>
		<circle fill="#F2F2F2" cx="413.834" cy="317.091" r="1.984"/>
		<path fill="#FFFFFF" d="M322.954,351.017c0.801,5.01,2.233,9.806,4.19,14.321c16.809,3.483,35.501,5.426,55.199,5.426
			c19.696,0,38.389-1.942,55.199-5.426c1.956-4.516,3.39-9.312,4.188-14.321c-17.469,5.119-37.752,8.051-59.387,8.051
			C360.708,359.068,340.425,356.136,322.954,351.017z"/>
		<path fill="#D65158" d="M416.813,390.735c-9.487-2.712-21.453-4.335-34.469-4.335c-13.017,0-24.982,1.623-34.469,4.335
			c9.762,6.842,21.642,10.866,34.469,10.866C395.17,401.601,407.05,397.577,416.813,390.735z"/>
		
			<path fill="none" stroke="#1A1A1A" stroke-width="3.9625" stroke-linecap="round" stroke-linejoin="round" stroke-miterlimit="10" d="
			M364.143,292.539c-8.693-7.402-21.857-7.402-30.552,0"/>
		
			<path fill="none" stroke="#1A1A1A" stroke-width="3.9625" stroke-linecap="round" stroke-linejoin="round" stroke-miterlimit="10" d="
			M428.826,284.21c-7.793-5.165-18.223-5.165-26.016,0"/>
	</g>
</g>
</svg>
