<?xml version="1.0" encoding="utf-8"?>
<!-- Generator: Adobe Illustrator 16.0.0, SVG Export Plug-In . SVG Version: 6.00 Build 0)  -->
<!DOCTYPE svg PUBLIC "-//W3C//DTD SVG 1.1//EN" "http://www.w3.org/Graphics/SVG/1.1/DTD/svg11.dtd">
<svg version="1.1" id="OBJECTS" xmlns="http://www.w3.org/2000/svg" xmlns:xlink="http://www.w3.org/1999/xlink" x="0px" y="0px"
	 width="245.54px" height="162.66px" viewBox="212.279 146.357 245.54 162.66"
	 enable-background="new 212.279 146.357 245.54 162.66" xml:space="preserve">
<g>
	<path fill="#FFFFFF" stroke="#A79895" stroke-width="3" stroke-linecap="round" stroke-miterlimit="10" stroke-dasharray="5" d="
		M409.258,236.087c1.551-1.336,9.521-0.124,11.604,0.038c3.431,0.267,6.871,0.848,10.065,2.163
		c11.945,4.915,17.867,20.555,16.765,32.732c-0.898,9.912-8.313,19.604-17.188,23.512c-11.69,5.147-25.646,4.739-38.135,4.15
		c-7.118-0.336-14.215-0.973-21.313-1.578c-21.443-1.826-42.799-3.227-64.29-4.379c-20.697-1.109-42.899-3-61.158-13.736
		c-5.714-3.36-10.933-7.91-14.828-13.291c-9.872-13.638-14.146-37.816,3.897-47.117c9.168-4.726,19.438-5.945,29.611-5.404
		c-4.832-2.807-5.811-10.409-6.055-15.461c-0.946-19.569,10.953-40.382,32.653-39.077c6.654,0.4,13.349,2.766,18.284,7.306
		c4.647,4.275,9.516,12.347,6.691,18.978c6.028-14.152,21.374-32.262,39.127-27.905c10.552,2.59,18.222,13.921,18.446,24.499
		c0.091,4.317,0.123,11.763-1.895,15.639c9.35-17.96,34.692-13.313,43.058,2.729c6.479,12.427,3.766,25.911-5.375,36.243
		L409.258,236.087z"/>
	<path fill="#FFFFFF" d="M349.576,146.357c-11.843,0-22.451,6.452-30.596,15.393c-0.964-1.133-1.984-2.194-3.04-3.165
		c-6.344-5.835-15.028-9.361-24.453-9.928c-0.843-0.051-1.692-0.077-2.525-0.077c-10.665,0-20.202,4.094-27.582,11.839
		c-8.916,9.358-13.826,23.481-13.135,37.779c0.062,1.267,0.159,3.281,0.512,5.648c-6.81,1.002-13.057,2.957-18.662,5.846
		c-8.71,4.49-14.516,11.901-16.788,21.432c-2.996,12.561,0.683,28.433,9.372,40.437c4.571,6.315,10.747,11.865,17.859,16.047
		c19.997,11.759,43.417,13.908,65.692,15.102c23.257,1.247,44.184,2.671,63.977,4.357l2.094,0.179
		c6.386,0.547,12.989,1.112,19.597,1.424c3.563,0.168,7.721,0.347,11.972,0.347c7.963,0,19.805-0.553,30.664-5.334
		c12.409-5.464,21.916-18.525,23.116-31.761c1.418-15.634-6.133-35.977-22.918-42.882c-2.604-1.071-5.455-1.853-8.639-2.363
		c0.684-2.063,1.2-4.162,1.545-6.281c1.391-8.542-0.054-17.234-4.173-25.136c-6.125-11.748-19.29-19.64-32.759-19.64
		c-2.676,0-5.256,0.296-7.711,0.87c-2.229-13.883-12.59-25.986-25.623-29.186C354.809,146.677,352.186,146.357,349.576,146.357
		L349.576,146.357z"/>
	<g>
		<path fill="#91DCFB" d="M408.729,236.643c1.549-1.337,9.521-0.125,11.604,0.038c3.429,0.268,6.869,0.849,10.064,2.164
			c11.944,4.915,17.867,20.555,16.764,32.731c-0.898,9.912-8.313,19.605-17.188,23.512c-11.69,5.148-25.646,4.739-38.135,4.15
			c-7.118-0.335-14.215-0.973-21.313-1.578c-21.443-1.826-42.799-3.227-64.29-4.378c-20.697-1.109-42.899-3-61.158-13.737
			c-5.714-3.36-10.933-7.909-14.828-13.291c-9.872-13.638-14.146-37.815,3.898-47.117c9.168-4.726,19.438-5.945,29.61-5.404
			c-4.832-2.807-5.81-10.408-6.055-15.461c-0.946-19.568,10.954-40.382,32.653-39.077c6.654,0.4,13.349,2.766,18.284,7.306
			c4.647,4.275,9.517,12.347,6.691,18.978c6.029-14.152,21.374-32.262,39.127-27.906c10.552,2.59,18.222,13.922,18.446,24.5
			c0.092,4.317,0.124,11.763-1.896,15.639c9.35-17.96,34.694-13.313,43.059,2.728c6.479,12.428,3.766,25.911-5.375,36.243
			C408.691,236.683,408.727,236.644,408.729,236.643z"/>
		<path fill="none" d="M407.923,235.377l0.318-0.196c0.125-0.073,0.407-0.189,0.612-0.264l0.34-0.113l0.236-0.051l0.463-0.09
			c0.592-0.088,1.145-0.125,1.686-0.143c1.076-0.027,2.111,0.019,3.138,0.084c2.054,0.128,4.052,0.392,6.021,0.571
			c1.009,0.119,1.955,0.155,3.014,0.343c1.042,0.171,2.094,0.312,3.105,0.593l1.53,0.375l1.505,0.519l0.752,0.262l0.188,0.066
			l0.094,0.033c-0.044-0.021,0.166,0.065,0.175,0.072l0.338,0.161l1.354,0.645c0.439,0.183,0.925,0.508,1.395,0.794
			c0.469,0.294,0.951,0.581,1.402,0.889l1.26,0.986c0.428,0.321,0.838,0.661,1.211,1.04l1.148,1.103
			c0.379,0.372,0.703,0.789,1.057,1.182c0.723,0.778,1.328,1.639,1.945,2.491c2.439,3.436,4.111,7.319,5.249,11.315
			c1.129,4.005,1.681,8.18,1.463,12.382c-0.038,0.548-0.028,0.998-0.106,1.627l-0.19,1.486c-0.202,1.055-0.41,2.181-0.728,3.173
			c-0.588,2.043-1.385,4.019-2.396,5.871c-1.982,3.728-4.688,7.04-7.905,9.779c-1.625,1.355-3.385,2.558-5.27,3.563l-1.444,0.702
			l-0.181,0.087l-0.267,0.104l-0.352,0.131l-0.701,0.263l-2.806,1.052c-0.938,0.349-2.013,0.566-3.015,0.853l-1.527,0.402
			c-0.512,0.144-1.021,0.264-1.523,0.336c-2.025,0.327-4.045,0.777-6.081,0.921l-3.049,0.311l-3.046,0.145
			c-2.033,0.132-4.053,0.09-6.077,0.109c-4.054-0.049-8.028-0.16-12.082-0.438l-11.952-0.884l-23.921-1.801
			c-7.968-0.583-15.937-1.254-23.902-1.67l-23.897-1.416c-7.985-0.42-16.025-0.951-24.027-2.001
			c-4.003-0.54-7.989-1.232-11.964-2.043c-3.966-0.861-7.902-1.906-11.78-3.18c-3.862-1.325-7.65-2.894-11.337-4.708l-2.72-1.456
			l-0.724-0.391l-0.642-0.387l-1.282-0.774c-0.864-0.557-1.771-1.164-2.626-1.765c-0.826-0.634-1.693-1.216-2.483-1.898
			c-3.244-2.645-6.17-5.614-8.712-9.072c-2.455-3.355-4.478-7.132-5.95-11.048c-1.494-3.924-2.489-8.055-2.868-12.296
			c-0.388-4.231-0.07-8.633,1.327-12.818c1.356-4.181,3.906-8.082,7.327-10.909c1.73-1.421,3.527-2.558,5.589-3.535l2.745-1.202
			c0.943-0.388,2.006-0.715,3.003-1.069c1.012-0.38,2.021-0.624,3.028-0.88c1.01-0.254,2.011-0.545,3.036-0.7
			c1.021-0.178,2.038-0.386,3.06-0.537l3.078-0.329c4.107-0.297,8.207-0.273,12.258,0.102l-0.833,2.796l-0.015-0.01
			c-2.533-1.507-4.056-4.015-4.967-6.437c-0.914-2.46-1.358-4.977-1.611-7.467c-0.252-2.503-0.313-4.952-0.188-7.489
			c0.132-2.499,0.459-4.986,0.983-7.434c1.051-4.891,2.88-9.644,5.58-13.913c2.689-4.258,6.307-8.029,10.716-10.642
			c4.393-2.633,9.534-3.979,14.611-3.996c0.635-0.011,1.269,0.028,1.902,0.041c0.183,0.008,0.265,0.002,0.528,0.021l0.452,0.044
			l0.905,0.088c1.173,0.072,2.501,0.358,3.76,0.567c2.47,0.57,4.898,1.349,7.204,2.444c2.273,1.149,4.481,2.486,6.394,4.218
			l0.37,0.308l0.357,0.342c0.219,0.216,0.432,0.41,0.656,0.644c0.451,0.48,0.912,0.961,1.311,1.45
			c0.834,0.969,1.584,2.007,2.278,3.083c1.362,2.165,2.501,4.525,3.058,7.131c0.604,2.573,0.487,5.458-0.579,8.041l-2.76-1.175
			l0.002-0.004c0.742-2.031,1.655-3.989,2.645-5.907c0.985-1.921,2.127-3.757,3.329-5.555c1.217-1.787,2.509-3.533,3.94-5.171
			c1.425-1.642,2.94-3.219,4.588-4.668c3.273-2.91,7.034-5.4,11.263-6.993c4.207-1.607,8.932-2.18,13.445-1.383
			c2.272,0.389,4.344,1.101,6.521,2.176c2.067,1.011,3.907,2.392,5.57,3.916c1.68,1.518,3.112,3.269,4.363,5.122
			c1.269,1.846,2.291,3.849,3.103,5.929c0.832,2.073,1.409,4.254,1.707,6.484c0.194,1.107,0.199,2.247,0.251,3.368
			c0.006,1.041-0.002,2.101-0.024,3.182c-0.069,2.145-0.149,4.287-0.463,6.461c-0.331,2.17-0.729,4.365-1.85,6.557l-2.661-1.385
			l0.002-0.003c0.913-1.813,2.029-3.546,3.381-5.104c1.339-1.569,2.938-2.93,4.688-4.05c3.514-2.235,7.653-3.4,11.764-3.535
			c4.122-0.144,8.219,0.704,11.988,2.275c3.758,1.605,7.215,3.941,10.051,6.931c1.413,1.498,2.643,3.173,3.678,4.962
			c0.254,0.476,0.508,0.846,0.759,1.41l0.608,1.3c0.42,0.814,0.768,1.884,1.141,2.836c0.363,0.979,0.586,1.957,0.882,2.935
			c0.2,0.998,0.437,1.992,0.575,3c0.104,1.014,0.281,2.021,0.281,3.043l0.045,1.528c-0.01,0.509-0.047,1.018-0.071,1.526
			c-0.085,2.037-0.466,4.041-0.917,6.014c-0.547,1.949-1.174,3.876-2.036,5.696l-0.646,1.363l-0.736,1.313
			c-0.469,0.888-1.037,1.712-1.586,2.548c-0.528,0.849-1.182,1.607-1.766,2.412c-0.625,0.775-1.301,1.505-1.947,2.257l-2.246-1.988
			c0.056-0.063,0.115-0.124,0.179-0.181c0.049-0.045,0.103-0.084,0.157-0.119L407.923,235.377z M409.572,237.885l0.135-0.105
			c0.039-0.031,0.076-0.065,0.107-0.103l-2.246-1.988c0.563-0.732,1.152-1.439,1.689-2.185c0.508-0.765,1.084-1.484,1.535-2.281
			c0.471-0.786,0.962-1.556,1.354-2.381l0.621-1.216l0.534-1.253c0.74-1.659,1.255-3.398,1.702-5.143
			c0.354-1.765,0.653-3.543,0.682-5.336c0.01-0.448,0.033-0.895,0.032-1.342l-0.063-1.34c-0.002-0.896-0.176-1.779-0.269-2.667
			c-0.129-0.884-0.347-1.755-0.524-2.631c-0.271-0.848-0.479-1.743-0.791-2.554c-0.34-0.822-0.555-1.592-1.018-2.479l-0.619-1.295
			c-0.133-0.314-0.414-0.744-0.613-1.111c-0.889-1.518-1.963-2.925-3.157-4.229c-2.416-2.587-5.411-4.649-8.679-6.075
			c-3.282-1.397-6.84-2.136-10.377-2.115c-3.537,0.034-7.035,0.96-10.039,2.752c-1.504,0.888-2.899,1.98-4.093,3.283
			c-1.198,1.296-2.238,2.752-3.133,4.313l-0.002,0.003c-0.396,0.728-1.307,0.997-2.034,0.601c-0.699-0.38-0.976-1.236-0.645-1.948
			l0.018-0.038c0.744-1.593,1.054-3.596,1.287-5.563c0.227-1.987,0.241-4.046,0.242-6.09c-0.01-1.016-0.035-2.052-0.073-3.108
			c-0.079-0.969-0.116-1.933-0.302-2.892c-0.293-1.919-0.831-3.815-1.597-5.617c-0.746-1.807-1.675-3.55-2.815-5.137
			c-1.122-1.595-2.394-3.092-3.855-4.356c-1.452-1.264-3.005-2.424-4.719-3.243c-1.572-0.781-3.502-1.465-5.373-1.756
			c-3.769-0.633-7.66-0.15-11.273,1.249c-3.623,1.392-6.959,3.62-9.977,6.233c-1.502,1.319-2.944,2.724-4.3,4.22
			c-1.347,1.501-2.657,3.051-3.866,4.684c-1.219,1.626-2.324,3.336-3.402,5.065c-1.072,1.732-2.037,3.53-2.943,5.354l-0.002,0.004
			c-0.336,0.757-1.222,1.099-1.979,0.763c-0.741-0.329-1.085-1.185-0.783-1.932l0.003-0.007c0.774-1.915,0.909-4.088,0.407-6.229
			c-0.452-2.146-1.44-4.228-2.654-6.153c-0.62-0.958-1.291-1.891-2.039-2.758c-0.366-0.451-0.748-0.842-1.123-1.248
			c-0.194-0.205-0.429-0.42-0.642-0.629l-0.299-0.287l-0.329-0.271c-1.687-1.533-3.662-2.722-5.703-3.76
			c-2.077-0.986-4.283-1.692-6.534-2.215c-1.133-0.177-2.175-0.435-3.424-0.516l-0.904-0.088l-0.452-0.044l-0.38-0.011
			c-0.577-0.01-1.155-0.047-1.73-0.037c-4.612,0.018-9.179,1.222-13.112,3.577c-3.945,2.338-7.233,5.745-9.712,9.667
			c-2.485,3.927-4.198,8.358-5.18,12.935c-0.49,2.291-0.798,4.623-0.921,6.963c-0.117,2.302-0.063,4.712,0.175,7.03
			c0.233,2.326,0.655,4.62,1.434,6.708c0.777,2.077,1.988,3.909,3.672,4.905l0.011,0.006c0.709,0.442,0.925,1.375,0.482,2.084
			c-0.286,0.459-0.777,0.711-1.281,0.712h-0.035c-3.931-0.002-7.838,0.163-11.678,0.7c-3.829,0.512-7.617,1.447-11.145,2.734
			c-0.87,0.354-1.718,0.631-2.606,1.037l-2.694,1.312c-1.517,0.789-3.111,1.814-4.435,2.974c-2.679,2.356-4.622,5.416-5.708,8.836
			c-1.082,3.423-1.372,7.155-1.064,10.869c0.314,3.718,1.183,7.436,2.517,10.982c1.355,3.551,3.017,6.943,5.225,10.081
			c2.128,3.03,4.785,5.864,7.677,8.33c0.705,0.645,1.491,1.194,2.232,1.797c0.766,0.565,1.505,1.091,2.305,1.639l1.263,0.807
			l0.631,0.403l0.589,0.333l2.528,1.437c3.434,1.815,7.015,3.368,10.696,4.68c3.697,1.271,7.477,2.334,11.307,3.223
			c3.84,0.863,7.734,1.503,11.648,2.051c7.845,1.044,15.763,1.584,23.732,2.02l23.956,1.465c7.994,0.433,15.95,1.119,23.919,1.717
			l23.885,1.802l11.952,0.885c3.918,0.271,7.936,0.384,11.868,0.431c1.971-0.02,3.949,0.023,5.904-0.105l2.939-0.138l2.913-0.298
			c1.955-0.135,3.846-0.566,5.764-0.871c0.485-0.068,0.948-0.179,1.399-0.309l1.369-0.359c0.918-0.264,1.816-0.418,2.752-0.766
			l2.806-1.051l0.702-0.263l0.352-0.131l0.086-0.033c-0.011,0.005,0.15-0.059-0.002,0.003l0.155-0.076l1.251-0.607
			c1.641-0.877,3.191-1.938,4.646-3.127c2.879-2.418,5.338-5.387,7.129-8.704c0.916-1.647,1.631-3.397,2.158-5.187
			c0.295-0.912,0.445-1.755,0.639-2.657l0.199-1.485c0.054-0.361,0.061-0.914,0.094-1.361c0.224-3.781-0.253-7.636-1.27-11.322
			c-1.021-3.68-2.537-7.255-4.714-10.354c-0.551-0.768-1.087-1.549-1.725-2.24c-0.313-0.35-0.599-0.729-0.931-1.058l-1.008-0.977
			c-0.324-0.34-0.684-0.639-1.055-0.918l-1.093-0.87c-0.372-0.255-0.75-0.478-1.123-0.722c-0.382-0.237-0.714-0.494-1.197-0.701
			l-1.349-0.654l-0.336-0.164c-0.047-0.023,0.102,0.049,0,0.005l-0.084-0.029l-0.166-0.058l-0.66-0.234l-1.324-0.47l-1.377-0.344
			c-0.914-0.264-1.848-0.388-2.773-0.551c-0.906-0.177-1.963-0.231-2.937-0.354c-2.009-0.197-3.972-0.468-5.908-0.601
			c-0.966-0.068-1.929-0.114-2.85-0.097c-0.457,0.012-0.901,0.041-1.3,0.097l-0.271,0.052l-0.13,0.023
			c-0.005,0.005-0.011,0.008-0.017,0.007c-0.025,0.014,0.006-0.051-0.088-0.004L409.572,237.885z"/>
	</g>
	<g>
		<circle fill="#FFFFFF" cx="357.782" cy="230.607" r="14.456"/>
		<circle fill="#45333F" cx="355.584" cy="228.663" r="10.305"/>
		<circle fill="#FFFFFF" cx="351.41" cy="225.997" r="6.45"/>
	</g>
	<g>
		<circle fill="#FFFFFF" cx="301.513" cy="220.583" r="14.456"/>
		<circle fill="#45333F" cx="299.315" cy="218.637" r="10.305"/>
		<circle fill="#FFFFFF" cx="295.141" cy="215.971" r="6.45"/>
	</g>
	
		<ellipse transform="matrix(-0.1897 0.9818 -0.9818 -0.1897 709.4664 -65.2811)" fill="#CAFAFB" cx="381.671" cy="260.112" rx="7.512" ry="14.826"/>
	
		<ellipse transform="matrix(-0.1897 0.9818 -0.9818 -0.1897 563.4105 19.6263)" fill="#CAFAFB" cx="273.607" cy="242.298" rx="7.512" ry="14.826"/>
	<path fill="#FED2D1" d="M336.838,267.495c-0.874,6.933-7.202,11.845-14.135,10.971c-6.933-0.874-11.845-7.202-10.972-14.135
		l0.791-6.276l25.105,3.163L336.838,267.495z"/>
	<path fill="#45333F" d="M361.8,204.406c0,0,11.908,5.766,15.641,18.775c-3.214-3.175-11.35-11.936-20.072-12.741
		C360.48,206.397,361.8,204.406,361.8,204.406z"/>
	<path fill="#45333F" d="M315.258,198.956c0,0-11.656-6.26-24.38-1.649c4.457,0.74,16.324,2.187,22.095,8.778
		C314.42,201.194,315.258,198.956,315.258,198.956z"/>
</g>
</svg>
