{
    "org.apache.cordova.device": {
        "source": {
            "type": "registry",
            "id": "org.apache.cordova.device"
        },
        "is_top_level": false,
        "variables": {}
    },
    "cordova-plugin-device": {
        "source": {
            "type": "registry",
            "id": "cordova-plugin-device"
        },
        "is_top_level": false,
        "variables": {}
    },
    "cordova-plugin-network-information": {
        "source": {
            "type": "registry",
            "id": "cordova-plugin-network-information"
        },
        "is_top_level": true,
        "variables": {}
    },
    "org.apache.cordova.network-information": {
        "source": {
            "type": "registry",
            "id": "org.apache.cordova.network-information"
        },
        "is_top_level": true,
        "variables": {}
    },
    "com.red_folder.phonegap.plugin.backgroundservice": {
        "source": {
            "type": "git",
            "url": "https://github.com/Red-Folder/bgs-core.git",
            "subdir": "."
        },
        "is_top_level": false,
        "variables": {}
    },
    "com.borismus.webintent": {
        "source": {
            "type": "git",
            "url": "https://github.com/Initsogar/cordova-webintent.git",
            "subdir": "."
        },
        "is_top_level": true,
        "variables": {}
    },
    "com.phonegap.plugins.facebookconnect": {
        "source": {
            "type": "local",
            "path": "/Iloveit/phonegap-facebook-plugin"
        },
        "is_top_level": true,
        "variables": {
            "APP_ID": "1457297721198470",
            "APP_NAME": "Grisino"
        }
    },
    "cordova-plugin-networkinterface": {
        "source": {
            "type": "registry",
            "id": "cordova-plugin-networkinterface"
        },
        "is_top_level": true,
        "variables": {}
    },
    "cordova-plugin-inappbrowser": {
        "source": {
            "type": "registry",
            "id": "cordova-plugin-inappbrowser"
        },
        "is_top_level": true,
        "variables": {}
    },
    "cordova-plugin-whitelist": {
        "source": {
            "type": "registry",
            "id": "cordova-plugin-whitelist@1"
        },
        "is_top_level": true,
        "variables": {}
    },
    "cordova-plugin-splashscreen": {
        "source": {
            "type": "registry",
            "id": "cordova-plugin-splashscreen"
        },
        "is_top_level": true,
        "variables": {}
    },
    "io.litehelpers.cordova.sqlite": {
        "source": {
            "type": "registry",
            "id": "cordova-sqlite-storage"
        },
        "is_top_level": true,
        "variables": {}
    },
    "cordova-plugin-geolocation": {
        "source": {
            "type": "registry",
            "id": "cordova-plugin-geolocation"
        },
        "is_top_level": true,
        "variables": {}
    },
    "nl.x-services.plugins.socialsharing": {
        "source": {
            "type": "git",
            "url": "https://github.com/Telerik-Verified-Plugins/SocialSharing",
            "subdir": "."
        },
        "is_top_level": true,
        "variables": {}
    },
    "cordova-plugin-x-socialsharing": {
        "source": {
            "type": "registry",
            "id": "cordova-plugin-x-socialsharing"
        },
        "is_top_level": true,
        "variables": {}
    },
    "cordova-instagram-plugin": {
        "source": {
            "type": "registry",
            "id": "cordova-instagram-plugin"
        },
        "is_top_level": true,
        "variables": {}
    },
    "com.verso.cordova.clipboard": {
        "source": {
            "type": "git",
            "url": "https://github.com/VersoSolutions/CordovaClipboard.git",
            "subdir": "."
        },
        "is_top_level": false,
        "variables": {}
    },
    "de.appplant.cordova.plugin.local-notification": {
        "source": {
            "type": "git",
            "url": "https://github.com/katzer/cordova-plugin-local-notifications",
            "subdir": "."
        },
        "is_top_level": true,
        "variables": {}
    },
    "cordova-plugin-app-event": {
        "source": {
            "type": "registry",
            "id": "cordova-plugin-app-event"
        },
        "is_top_level": false,
        "variables": {}
    },
    "ionic-plugin-keyboard": {
        "source": {
            "type": "registry",
            "id": "ionic-plugin-keyboard"
        },
        "is_top_level": true,
        "variables": {}
    },
    "cordova-plugin-themeablebrowser": {
        "source": {
            "type": "registry",
            "id": "cordova-plugin-themeablebrowser"
        },
        "is_top_level": true,
        "variables": {}
    },
    "cordova-plugin-appversion": {
        "source": {
            "type": "registry",
            "id": "cordova-plugin-appversion"
        },
        "is_top_level": true,
        "variables": {}
    },
    "org.devgeeks.Canvas2ImagePlugin": {
        "source": {
            "type": "git",
            "url": "https://github.com/devgeeks/Canvas2ImagePlugin.git",
            "subdir": "."
        },
        "is_top_level": true,
        "variables": {}
    },
    "com.keith.cordova.plugin.canvascamera": {
        "source": {
            "type": "git",
            "url": "https://github.com/donaldp24/CanvasCameraPlugin.git",
            "subdir": "."
        },
        "is_top_level": true,
        "variables": {}
    },
    "cordova-plugin-vuforia-sdk": {
        "source": {
            "type": "registry",
            "id": "cordova-plugin-vuforia-sdk"
        },
        "is_top_level": false,
        "variables": {}
    },
    "cordova-plugin-google-analytics": {
        "source": {
            "type": "git",
            "url": "https://github.com/danwilson/google-analytics-plugin.git",
            "subdir": "."
        },
        "is_top_level": true,
        "variables": {}
    },
    "com.drifty.cordova.cameraroll": {
        "source": {
            "type": "registry",
            "id": "cordova-plugin-camera-roll"
        },
        "is_top_level": true,
        "variables": {}
    },
    "cordova-plugin-camera-preview": {
        "source": {
            "type": "git",
            "url": "https://github.com/mbppower/CordovaCameraPreview.git",
            "subdir": "."
        },
        "is_top_level": true,
        "variables": {}
    }
}